Leading Razor Protein	N	tissue
Q86U42-2	1	liver_evidence
P36578	64	liver_evidence
P28482-2	1	liver_evidence
P09417	42	liver_evidence
Q8WVM8	9	liver_evidence
Q9Y2Z0-2	2	liver_evidence
O43324	10	liver_evidence
Q00796	171	liver_evidence
Q96K37	4	liver_evidence
E9PI68	19	liver_evidence
P49914	10	liver_evidence
P55263	25	liver_evidence
P07954-2	49	liver_evidence
Q9Y490	326	liver_evidence
O94826	29	liver_evidence
Q8N4T8	15	liver_evidence
P35221	51	liver_evidence
Q9UL25	6	liver_evidence
Q96T51	3	liver_evidence
P51970	11	liver_evidence
P08107	75	liver_evidence
Q16853	26	liver_evidence
P31948	43	liver_evidence
Q13423	179	liver_evidence
P62877	1	liver_evidence
Q9BYV7-6	8	liver_evidence
C9JRZ6	16	liver_evidence
B4DV96	3	liver_evidence
E7ESM9	3	liver_evidence
P53618	91	liver_evidence
O96005	12	liver_evidence
Q92506	22	liver_evidence
D6RGI3	8	liver_evidence
Q5VWZ2-2	8	liver_evidence
A8MXH2	2	liver_evidence
H0YLW7	2	liver_evidence
J3QQP1	1	liver_evidence
Q9UDW1	4	liver_evidence
Q7KZF4	144	liver_evidence
O95342	23	liver_evidence
Q9NS69	5	liver_evidence
E7EPT4	2	liver_evidence
P35749-4	44	liver_evidence
O95336	14	liver_evidence
Q9BX93	2	liver_evidence
CON__P02768-1	673	liver_evidence
P13796	77	liver_evidence
Q9UNF0-2	6	liver_evidence
Q9UBQ7	97	liver_evidence
P02766	3	liver_evidence
P55060-4	26	liver_evidence
P06753-2	50	liver_evidence
P51452	10	liver_evidence
F5H740	11	liver_evidence
G8JLP2	4	liver_evidence
Q86VP6	50	liver_evidence
Q15293	9	liver_evidence
P30038	161	liver_evidence
E7EPD0	4	liver_evidence
P31327	1923	liver_evidence
Q9UL12	105	liver_evidence
P80723	8	liver_evidence
J3QS48	13	liver_evidence
Q14554	37	liver_evidence
Q08211	86	liver_evidence
B8ZZQ6	8	liver_evidence
E9PIY1	9	liver_evidence
P09496-2	3	liver_evidence
P20962	8	liver_evidence
P11586	339	liver_evidence
Q8WUM4	46	liver_evidence
F5GYJ8	6	liver_evidence
P29966	4	liver_evidence
Q1KMD3	13	liver_evidence
P07108	18	liver_evidence
P12111-2	621	liver_evidence
Q16706	19	liver_evidence
P35232	32	liver_evidence
P54707	1	liver_evidence
Q08379	15	liver_evidence
E9PMR9	2	liver_evidence
Q9C0C2	17	liver_evidence
Q6XQN6	15	liver_evidence
Q9H6R3	39	liver_evidence
P49327	938	liver_evidence
B4DZI8	86	liver_evidence
P52272-2	79	liver_evidence
P62258	51	liver_evidence
P49257	28	liver_evidence
P50416	54	liver_evidence
CON__P35908	91	liver_evidence
P31040	117	liver_evidence
F5H324	16	liver_evidence
P04406	204	liver_evidence
Q92667-2	2	liver_evidence
P05091	187	liver_evidence
Q13576	343	liver_evidence
O76003	4	liver_evidence
A6NCS6	4	liver_evidence
F8W1B3	3	liver_evidence
P52758	17	liver_evidence
G3V158	6	liver_evidence
Q3LXA3	147	liver_evidence
P30837	25	liver_evidence
Q9H4A6	5	liver_evidence
P28838-2	62	liver_evidence
G8JLD3	10	liver_evidence
Q9BQ69	3	liver_evidence
Q06278	437	liver_evidence
E5KLJ5	15	liver_evidence
O75369-2	480	liver_evidence
P60468	10	liver_evidence
Q8N5M9	7	liver_evidence
P26641	39	liver_evidence
P05386	2	liver_evidence
P98160	251	liver_evidence
H0YA52	2	liver_evidence
F8WB69	1	liver_evidence
E9PDF6	87	liver_evidence
Q9UQ80	10	liver_evidence
F5H7N5	1	liver_evidence
P32929	29	liver_evidence
P78371	50	liver_evidence
Q709F0	56	liver_evidence
P80511	5	liver_evidence
P36269-2	11	liver_evidence
P08319	379	liver_evidence
P24821-4	41	liver_evidence
Q92804-2	9	liver_evidence
P07741-2	15	liver_evidence
Q9P2E9	461	liver_evidence
P28332	103	liver_evidence
O60645-2	6	liver_evidence
F5H7E1	5	liver_evidence
Q9UJ70	11	liver_evidence
Q92522	7	liver_evidence
Q9HC35-2	50	liver_evidence
Q15149	513	liver_evidence
P15428-2	7	liver_evidence
P11766	86	liver_evidence
P46019	16	liver_evidence
P34897-3	56	liver_evidence
B4DZC3	2	liver_evidence
Q9NRV9	8	liver_evidence
Q9BRX8-2	13	liver_evidence
G3V1D4	2	liver_evidence
P30613-2	66	liver_evidence
H3BPE1	44	liver_evidence
Q13813	608	liver_evidence
Q92616	20	liver_evidence
Q8TEX9	10	liver_evidence
P07814	69	liver_evidence
E9PSI1	16	liver_evidence
P61586	24	liver_evidence
P62851	12	liver_evidence
P21549	190	liver_evidence
D3YTB1	19	liver_evidence
O95831	134	liver_evidence
E7EX73	62	liver_evidence
Q07954	115	liver_evidence
E9PEN8	12	liver_evidence
P55084	98	liver_evidence
Q96KP4	40	liver_evidence
P02792	92	liver_evidence
Q16891-2	76	liver_evidence
Q9UI17	61	liver_evidence
A1L0T0	24	liver_evidence
Q96G03	33	liver_evidence
O14975	93	liver_evidence
P42765	146	liver_evidence
P18206-2	87	liver_evidence
P25787	14	liver_evidence
P08574	10	liver_evidence
Q9Y4L1	150	liver_evidence
O75489	14	liver_evidence
H3BNW0	1	liver_evidence
Q15599-2	3	liver_evidence
P12814	134	liver_evidence
O43707	329	liver_evidence
Q15181	19	liver_evidence
Q15233	37	liver_evidence
P06737	227	liver_evidence
P38435	37	liver_evidence
P0CG06	15	liver_evidence
Q16401-2	12	liver_evidence
P37837	32	liver_evidence
O94906	5	liver_evidence
H7C2L4	2	liver_evidence
J3KPS3	29	liver_evidence
P35520	67	liver_evidence
B5MDF5	29	liver_evidence
Q16134	57	liver_evidence
Q15075	26	liver_evidence
P09622	26	liver_evidence
Q99623	51	liver_evidence
B1AK13	59	liver_evidence
I3L0N3	32	liver_evidence
Q96I24	12	liver_evidence
P01023	140	liver_evidence
Q13263-2	11	liver_evidence
O00116	3	liver_evidence
Q96HY6-2	3	liver_evidence
O15020-2	42	liver_evidence
P13861	7	liver_evidence
P14550	83	liver_evidence
P10412	66	liver_evidence
P09525	55	liver_evidence
B4DHT5	22	liver_evidence
P04114	248	liver_evidence
E7EQD7	4	liver_evidence
B4DS13	13	liver_evidence
Q96N66	4	liver_evidence
E9PIC0	4	liver_evidence
G5EA52	177	liver_evidence
B1AJR9	1	liver_evidence
Q9UBV2	14	liver_evidence
Q9BYT8	14	liver_evidence
B4DQI4	19	liver_evidence
B7Z254	27	liver_evidence
I3L1P8	40	liver_evidence
P01042-2	11	liver_evidence
Q9HCC0	36	liver_evidence
Q14683	10	liver_evidence
Q86TX2	21	liver_evidence
P13667	208	liver_evidence
Q9NR77	14	liver_evidence
B3KUV8	3	liver_evidence
Q14204	200	liver_evidence
P02649	18	liver_evidence
Q6Y1H2	3	liver_evidence
G3V4W0	54	liver_evidence
P22314	124	liver_evidence
P13804	71	liver_evidence
Q9NUI1	22	liver_evidence
Q5Y7A7	6	liver_evidence
Q5VTR2	2	liver_evidence
P10809	318	liver_evidence
Q14974	36	liver_evidence
Q99460-2	27	liver_evidence
B0QYK0	6	liver_evidence
P34913	61	liver_evidence
P12110	137	liver_evidence
Q96N76	35	liver_evidence
B7Z3I9	34	liver_evidence
Q9H3P7	6	liver_evidence
P12270	15	liver_evidence
Q53H82	12	liver_evidence
P00326	114	liver_evidence
P00325	626	liver_evidence
B4DGU4	24	liver_evidence
P05023-4	172	liver_evidence
Q5QPE4	4	liver_evidence
P39060-2	43	liver_evidence
P06733	148	liver_evidence
P00558	96	liver_evidence
Q15046	18	liver_evidence
P22033	74	liver_evidence
P37059	34	liver_evidence
P21912	29	liver_evidence
P00390-2	14	liver_evidence
Q8NFQ8	9	liver_evidence
Q15125	26	liver_evidence
P01024	367	liver_evidence
P51659	289	liver_evidence
Q5T4U5	44	liver_evidence
Q9H6K4	6	liver_evidence
P02545	211	liver_evidence
P51649	32	liver_evidence
P05141	26	liver_evidence
P12236	60	liver_evidence
P18669	33	liver_evidence
P04083	10	liver_evidence
P22695	51	liver_evidence
P54136	17	liver_evidence
F5H0L8	11	liver_evidence
P62873	28	liver_evidence
Q96QK1	56	liver_evidence
P26440	29	liver_evidence
P48449	67	liver_evidence
Q14847	17	liver_evidence
P62879	13	liver_evidence
Q99424	63	liver_evidence
P09382	15	liver_evidence
P22234	14	liver_evidence
B1AHD1	4	liver_evidence
Q9HBI6	15	liver_evidence
O95154	56	liver_evidence
Q5VZU9	35	liver_evidence
A0AVT1	15	liver_evidence
Q8IVH4	4	liver_evidence
P13929	14	liver_evidence
O95782-2	41	liver_evidence
R4GN98	6	liver_evidence
P11717	23	liver_evidence
Q9Y2P5	97	liver_evidence
Q02928	24	liver_evidence
E7EVL8	1	liver_evidence
P61247	46	liver_evidence
Q9NQR4	40	liver_evidence
P63104	40	liver_evidence
P11498	391	liver_evidence
P04844	94	liver_evidence
P00491	22	liver_evidence
Q7Z6Z7-2	23	liver_evidence
O95373	23	liver_evidence
P23396	60	liver_evidence
Q9Y6C9	59	liver_evidence
F8W8S0	8	liver_evidence
P08758	45	liver_evidence
O60832	7	liver_evidence
O75477	6	liver_evidence
Q15836	6	liver_evidence
P03915	13	liver_evidence
O94874	14	liver_evidence
J3KQU9	13	liver_evidence
Q68CK6	145	liver_evidence
O95202	28	liver_evidence
P00441	64	liver_evidence
O43290	6	liver_evidence
Q9Y3Z3-4	8	liver_evidence
P48739	7	liver_evidence
P61970	4	liver_evidence
Q3HM38	1	liver_evidence
Q06830	65	liver_evidence
P35579	654	liver_evidence
P52907	14	liver_evidence
P26640	70	liver_evidence
F5GXX5	11	liver_evidence
P08236	44	liver_evidence
O15438	27	liver_evidence
Q4G0N4	51	liver_evidence
Q8WVC2	9	liver_evidence
P00915	27	liver_evidence
A2VDF0-2	4	liver_evidence
Q9H008	6	liver_evidence
P07307-3	2	liver_evidence
O00748	48	liver_evidence
P08238	290	liver_evidence
C9J9K3	60	liver_evidence
Q9ULC5	50	liver_evidence
P62269	34	liver_evidence
Q09666	340	liver_evidence
Q92896	9	liver_evidence
P09210	93	liver_evidence
P36542	36	liver_evidence
E7EPB3	27	liver_evidence
P62280	32	liver_evidence
P06133	78	liver_evidence
P06748-3	19	liver_evidence
Q09028-3	4	liver_evidence
P45954	95	liver_evidence
P06576	125	liver_evidence
P56192	15	liver_evidence
Q99832	41	liver_evidence
P68036-2	8	liver_evidence
P61020	12	liver_evidence
P47755	15	liver_evidence
CON__Q9NSB4	6	liver_evidence
C9JFR7	11	liver_evidence
Q7Z406	73	liver_evidence
G3V5I3	41	liver_evidence
P30740	18	liver_evidence
P31930	27	liver_evidence
F8W6L6	147	liver_evidence
P26639	50	liver_evidence
P40939	269	liver_evidence
P36871	151	liver_evidence
Q5T5C7	33	liver_evidence
O75891	388	liver_evidence
P09467	147	liver_evidence
P62913-2	3	liver_evidence
Q9NZN3	25	liver_evidence
H0Y7A7	19	liver_evidence
O43772	34	liver_evidence
P62263	17	liver_evidence
P02787	153	liver_evidence
P01019	16	liver_evidence
P04040	134	liver_evidence
P43686	7	liver_evidence
J3KQ45	10	liver_evidence
Q15833-2	7	liver_evidence
P84090	5	liver_evidence
P16662	90	liver_evidence
CON__P08729	14	liver_evidence
P04424	69	liver_evidence
Q02952-3	7	liver_evidence
P04264	198	liver_evidence
CON__P05787	367	liver_evidence
E7ER89	29	liver_evidence
Q8NE62	20	liver_evidence
P46783	30	liver_evidence
P49411	49	liver_evidence
P21333-2	326	liver_evidence
B7ZKJ8	33	liver_evidence
K7EKI8	54	liver_evidence
Q02790	35	liver_evidence
P14543-2	4	liver_evidence
P49638	8	liver_evidence
P11142	158	liver_evidence
P32119	28	liver_evidence
E5RIW3	12	liver_evidence
P07355	51	liver_evidence
P15880	31	liver_evidence
Q86XR7-2	14	liver_evidence
P12004	2	liver_evidence
E9PHI6	2	liver_evidence
Q9UFM8	1	liver_evidence
P14868	57	liver_evidence
P01766	3	liver_evidence
P27824	124	liver_evidence
P13674-3	9	liver_evidence
P00450	41	liver_evidence
P25398	19	liver_evidence
A2RRP1-2	2	liver_evidence
H3BUX4	1	liver_evidence
P09110	86	liver_evidence
G8JLD5	9	liver_evidence
Q96TC7	9	liver_evidence
B4DIT7	213	liver_evidence
P52565	20	liver_evidence
D6RA00	1	liver_evidence
Q9H4A4	20	liver_evidence
P0C0L5	162	liver_evidence
CON__P02769	93	liver_evidence
J3KMX2	1	liver_evidence
P67936	18	liver_evidence
Q00839	4	liver_evidence
Q08477-2	38	liver_evidence
Q9BX68	9	liver_evidence
Q9NVI7-2	21	liver_evidence
P14735	17	liver_evidence
P07237	212	liver_evidence
Q8N1G4	15	liver_evidence
Q9NZB2	8	liver_evidence
P14854	11	liver_evidence
P20700	30	liver_evidence
J3KQE0	12	liver_evidence
P16615	95	liver_evidence
D6RFW5	1	liver_evidence
Q14697-2	186	liver_evidence
B4DDD6	11	liver_evidence
REV__Q06265-3	1	liver_evidence
Q13200	46	liver_evidence
Q12797	27	liver_evidence
P23246	50	liver_evidence
Q92696	5	liver_evidence
Q13907	10	liver_evidence
E7EWU3	27	liver_evidence
P15924	81	liver_evidence
P63010	15	liver_evidence
Q10567-3	52	liver_evidence
Q9UN36-2	10	liver_evidence
O00231	9	liver_evidence
H7BYY1	13	liver_evidence
P33121	331	liver_evidence
Q02252	108	liver_evidence
Q9Y5Z4	6	liver_evidence
P54855	56	liver_evidence
P50440-2	74	liver_evidence
F8WCF6	21	liver_evidence
Q92544	10	liver_evidence
Q15404-2	5	liver_evidence
U3KQJ1	3	liver_evidence
O00505	1	liver_evidence
P42704	124	liver_evidence
P51572	18	liver_evidence
P30519	5	liver_evidence
P61088	9	liver_evidence
P61158	16	liver_evidence
B9ZVX0	38	liver_evidence
Q9Y6N5	19	liver_evidence
Q12906	41	liver_evidence
Q9NRR5	1	liver_evidence
P09874	27	liver_evidence
P67936-2	2	liver_evidence
P02748	15	liver_evidence
O00160	2	liver_evidence
Q02218	52	liver_evidence
B4E1K7	5	liver_evidence
Q9UDY2-6	11	liver_evidence
P00167-2	18	liver_evidence
B4DZW6	4	liver_evidence
P11233	6	liver_evidence
Q9NRF9	1	liver_evidence
O95674	11	liver_evidence
Q15437	4	liver_evidence
P34932	52	liver_evidence
Q9NR28-2	8	liver_evidence
C9JME2	16	liver_evidence
C9JIF9	21	liver_evidence
Q99442	3	liver_evidence
P13797	54	liver_evidence
J3KNL3	2	liver_evidence
CON__P13645	146	liver_evidence
F5H365	68	liver_evidence
M0QWZ7	3	liver_evidence
O60493	9	liver_evidence
P07951-2	6	liver_evidence
E7ESG3	10	liver_evidence
B4DFR2	3	liver_evidence
P62841	19	liver_evidence
G3V1A6	3	liver_evidence
Q15067-2	41	liver_evidence
P40429	27	liver_evidence
Q5VT94	8	liver_evidence
H7BYN3	4	liver_evidence
P60228	7	liver_evidence
P22413	20	liver_evidence
P30084	122	liver_evidence
P35241	52	liver_evidence
Q86WU2-2	14	liver_evidence
O60656	13	liver_evidence
P22102	19	liver_evidence
Q9H2U2	21	liver_evidence
Q14166	9	liver_evidence
O43175	42	liver_evidence
P26373	26	liver_evidence
E7EU05	7	liver_evidence
Q6NVY1	22	liver_evidence
P54577	36	liver_evidence
G3V1R5	12	liver_evidence
H3BPJ9	8	liver_evidence
P42357	19	liver_evidence
Q01082	504	liver_evidence
P32754	82	liver_evidence
E7EX59	40	liver_evidence
P49189	62	liver_evidence
G3V599	14	liver_evidence
P09327	12	liver_evidence
P61457	18	liver_evidence
Q9H479	4	liver_evidence
P25325	47	liver_evidence
B4E241	10	liver_evidence
B4DDT2	8	liver_evidence
P17987	34	liver_evidence
Q9UIJ7	18	liver_evidence
E7ERF4	2	liver_evidence
Q9NRG7-2	4	liver_evidence
E9PH64	5	liver_evidence
F5H897	34	liver_evidence
H0YDU8	3	liver_evidence
Q8WWQ8	2	liver_evidence
P49207	10	liver_evidence
K7EJE8	66	liver_evidence
E7EX90	18	liver_evidence
P61026	7	liver_evidence
E7ENE7	25	liver_evidence
P39023	63	liver_evidence
Q00610-2	427	liver_evidence
P46060	7	liver_evidence
D6RFL4	1	liver_evidence
P54840	76	liver_evidence
P35270	14	liver_evidence
Q8IVM8	7	liver_evidence
H7C3P4	3	liver_evidence
E9PH29	44	liver_evidence
P13010	76	liver_evidence
P51570	42	liver_evidence
O14841	38	liver_evidence
CON__O43790	35	liver_evidence
P10768	25	liver_evidence
B4DR61	26	liver_evidence
O60506-2	45	liver_evidence
P11279	17	liver_evidence
P01031	18	liver_evidence
P31939-2	28	liver_evidence
Q07021	11	liver_evidence
P48147	11	liver_evidence
F5GYC3	3	liver_evidence
O95954	132	liver_evidence
Q71U36-2	173	liver_evidence
F5H1P6	8	liver_evidence
O95394	18	liver_evidence
Q08AH3	31	liver_evidence
Q9UL46	33	liver_evidence
Q5T440	3	liver_evidence
B4DGL8	7	liver_evidence
P50895	7	liver_evidence
REV__Q9NUQ8-2	7	liver_evidence
Q01518	43	liver_evidence
Q9BUP3-3	12	liver_evidence
Q9UBR1	33	liver_evidence
O95295	1	liver_evidence
P40926	83	liver_evidence
P05388	31	liver_evidence
P06396-2	33	liver_evidence
Q8NFU3-3	2	liver_evidence
Q93088	134	liver_evidence
Q9NX00	2	liver_evidence
Q96LJ7	26	liver_evidence
P21439-3	4	liver_evidence
B5AK60	11	liver_evidence
P08240	12	liver_evidence
K7EJQ7	5	liver_evidence
Q9Y678	80	liver_evidence
Q16836	66	liver_evidence
P14923	38	liver_evidence
Q9NZT2-2	6	liver_evidence
O76054-5	18	liver_evidence
P08603	35	liver_evidence
Q08257	65	liver_evidence
P63261	445	liver_evidence
B4DNW0	40	liver_evidence
B4DGD5	5	liver_evidence
Q9BY49	26	liver_evidence
Q9H223	9	liver_evidence
Q6NUM9	17	liver_evidence
P41091	18	liver_evidence
Q32MZ4-3	19	liver_evidence
Q92598-2	17	liver_evidence
Q14749	54	liver_evidence
J9JID7	16	liver_evidence
P20618	12	liver_evidence
K7ELD9	2	liver_evidence
Q8NBX0	26	liver_evidence
J3KTF4	5	liver_evidence
Q9BWD1	33	liver_evidence
P23378	321	liver_evidence
P18583-6	3	liver_evidence
P12109	184	liver_evidence
P09669	16	liver_evidence
P13639	266	liver_evidence
C9JLU1	2	liver_evidence
P24752	163	liver_evidence
Q8N5G0-2	1	liver_evidence
Q9UJS0	101	liver_evidence
O94760	25	liver_evidence
P49748	118	liver_evidence
G3V1D3	29	liver_evidence
P23786	75	liver_evidence
Q00341	153	liver_evidence
Q04446	53	liver_evidence
Q9Y5J7	6	liver_evidence
Q5T2W1-2	7	liver_evidence
Q6FI13	51	liver_evidence
E9PLS4	2	liver_evidence
Q5JR08	3	liver_evidence
E9PNW4	7	liver_evidence
O43464-2	1	liver_evidence
U3KPU7	11	liver_evidence
O75947	23	liver_evidence
Q9H2M3	10	liver_evidence
P34896-2	154	liver_evidence
Q9Y2Q3	41	liver_evidence
P23381	14	liver_evidence
P35268	7	liver_evidence
K7ERE1	13	liver_evidence
Q96IX5	11	liver_evidence
P02776	4	liver_evidence
Q96EY8	12	liver_evidence
O60271-9	7	liver_evidence
P61604	27	liver_evidence
F5H7U0	33	liver_evidence
P23141-3	566	liver_evidence
P09543-2	1	liver_evidence
P31150	4	liver_evidence
A2A274	117	liver_evidence
J3KNX9	53	liver_evidence
Q9Y696	12	liver_evidence
A3KMH1-3	29	liver_evidence
Q9BT30	1	liver_evidence
Q9H2A2	30	liver_evidence
P06756-3	9	liver_evidence
F5H1L4	22	liver_evidence
B7Z6B8	76	liver_evidence
Q9Y224	4	liver_evidence
O75340	8	liver_evidence
P62424	40	liver_evidence
Q96DG6	34	liver_evidence
Q9C0D9	4	liver_evidence
P10253	59	liver_evidence
P35555	51	liver_evidence
P46777	41	liver_evidence
Q14032	31	liver_evidence
O60547	3	liver_evidence
Q6NZI2	5	liver_evidence
O75083	61	liver_evidence
O43676	3	liver_evidence
P16930	39	liver_evidence
P50990	56	liver_evidence
P07585	22	liver_evidence
P13073	18	liver_evidence
Q9BSH5	17	liver_evidence
Q14980-4	29	liver_evidence
P18077	12	liver_evidence
P02462-2	21	liver_evidence
P30043	39	liver_evidence
P62266	14	liver_evidence
Q96C86	2	liver_evidence
P10620	50	liver_evidence
B4DVE7	4	liver_evidence
P08572	25	liver_evidence
Q96CS3	5	liver_evidence
P43155-2	43	liver_evidence
O00461	17	liver_evidence
P62714	11	liver_evidence
Q5VV89	24	liver_evidence
P62140	18	liver_evidence
E9PDL7	3	liver_evidence
Q9H330-2	10	liver_evidence
P02647	19	liver_evidence
Q16851	169	liver_evidence
P55072	88	liver_evidence
H0Y320	2	liver_evidence
Q86UP2-2	66	liver_evidence
P02675	127	liver_evidence
Q92947	13	liver_evidence
B4DUS9	5	liver_evidence
P54920	15	liver_evidence
P32320	3	liver_evidence
E9PRM7	6	liver_evidence
P28062-2	13	liver_evidence
P40925	34	liver_evidence
P07357	5	liver_evidence
P42330	46	liver_evidence
Q04828	220	liver_evidence
P50502	20	liver_evidence
Q9UJM8	65	liver_evidence
Q16822	248	liver_evidence
Q96PK6	5	liver_evidence
O15230	18	liver_evidence
Q15424-2	9	liver_evidence
P30419	6	liver_evidence
O43765	5	liver_evidence
O75223	3	liver_evidence
H7C1E4	2	liver_evidence
Q96HR9	29	liver_evidence
Q86X76-2	12	liver_evidence
Q96HS1	7	liver_evidence
Q9GZP9	2	liver_evidence
O75643	21	liver_evidence
Q14696	5	liver_evidence
P07339	74	liver_evidence
B5MCT7	2	liver_evidence
CON__P48668	8	liver_evidence
O00763	46	liver_evidence
H0YHR7	1	liver_evidence
P07148	65	liver_evidence
Q96NU7	15	liver_evidence
P05186	11	liver_evidence
P28066	12	liver_evidence
P17858	43	liver_evidence
Q9UDR5	55	liver_evidence
P28070	10	liver_evidence
O75976	16	liver_evidence
P62081	23	liver_evidence
P61221	13	liver_evidence
Q9NYL4	6	liver_evidence
P51809	2	liver_evidence
F8VVA7	7	liver_evidence
P09960	37	liver_evidence
P11168	32	liver_evidence
K7ENL3	45	liver_evidence
P49326	66	liver_evidence
Q5JP53	37	liver_evidence
F8VYN9	9	liver_evidence
P00387-2	44	liver_evidence
Q15363	13	liver_evidence
P08133	149	liver_evidence
Q6IB77	70	liver_evidence
G3V5Z7	18	liver_evidence
Q9Y2A7	7	liver_evidence
Q92945	23	liver_evidence
Q9BRF8	15	liver_evidence
P50570-5	18	liver_evidence
Q02878	45	liver_evidence
P02679-2	133	liver_evidence
E9PN17	11	liver_evidence
P78527	114	liver_evidence
Q6P2Q9	27	liver_evidence
P30153	35	liver_evidence
Q9HD89	4	liver_evidence
Q9H7Z7	4	liver_evidence
C9JXB8	25	liver_evidence
Q15365	64	liver_evidence
Q16555-2	29	liver_evidence
Q14117	62	liver_evidence
O14818	18	liver_evidence
Q9BUB7-2	3	liver_evidence
Q5JXH9	4	liver_evidence
Q14152	85	liver_evidence
O00468-2	7	liver_evidence
Q9Y5M8	18	liver_evidence
Q08426	276	liver_evidence
O75533	18	liver_evidence
P48163	7	liver_evidence
P53396-2	45	liver_evidence
Q9NYU2-2	91	liver_evidence
Q96P70	3	liver_evidence
P04179	41	liver_evidence
O00232	11	liver_evidence
Q96RP9	11	liver_evidence
P28074	7	liver_evidence
P15311	38	liver_evidence
Q96AG4	23	liver_evidence
P11940-2	52	liver_evidence
H3BRV0	39	liver_evidence
P16435	120	liver_evidence
P11021	257	liver_evidence
E9PK01	20	liver_evidence
O75874	127	liver_evidence
CON__P78386	18	liver_evidence
O00410	22	liver_evidence
P36957	14	liver_evidence
O43242	30	liver_evidence
E9PS71	3	liver_evidence
P00367	308	liver_evidence
P27635	27	liver_evidence
Q8NC51-4	8	liver_evidence
P16401	3	liver_evidence
Q96GK7	17	liver_evidence
REV__Q6ZRC1	1	liver_evidence
P22830	11	liver_evidence
Q9HAV7	9	liver_evidence
E7ENA9	4	liver_evidence
P52888	19	liver_evidence
Q9BS26	10	liver_evidence
J3KQL8	4	liver_evidence
P48637	13	liver_evidence
Q5T123	7	liver_evidence
Q86YB7	24	liver_evidence
Q9NUJ1	11	liver_evidence
D6RGG3	11	liver_evidence
Q9NPD5	27	liver_evidence
Q86UY0	21	liver_evidence
Q6DD88	12	liver_evidence
Q9BPX5	2	liver_evidence
A8MVQ3	10	liver_evidence
Q9BQB6	14	liver_evidence
P19971	27	liver_evidence
P30405	10	liver_evidence
P24298	33	liver_evidence
P53621	163	liver_evidence
P35998	6	liver_evidence
R4GMU1	65	liver_evidence
P14927	6	liver_evidence
B4DUX5	12	liver_evidence
B7Z972	10	liver_evidence
P09455	8	liver_evidence
P52895	52	liver_evidence
Q96GA7	7	liver_evidence
CON__P02533	17	liver_evidence
A8MU44	4	liver_evidence
Q99615-2	7	liver_evidence
P35573	356	liver_evidence
G3V0F2	8	liver_evidence
O75400-2	1	liver_evidence
P26038	134	liver_evidence
Q9Y617	35	liver_evidence
P19338	96	liver_evidence
O43678	8	liver_evidence
P15144	82	liver_evidence
Q9NR45	11	liver_evidence
P46940	67	liver_evidence
Q9Y265	9	liver_evidence
Q6PGP7	3	liver_evidence
Q9UQE7	6	liver_evidence
P47989	52	liver_evidence
P08648	6	liver_evidence
Q16762	107	liver_evidence
E7ETN3	24	liver_evidence
B4DJV2	11	liver_evidence
P22897	22	liver_evidence
Q96ER9	3	liver_evidence
Q13451	14	liver_evidence
P30047	14	liver_evidence
Q15155	28	liver_evidence
F8W1R7	20	liver_evidence
Q9H2G2	5	liver_evidence
O60218	58	liver_evidence
O14579-3	8	liver_evidence
P50991	35	liver_evidence
P08263	13	liver_evidence
F5H4Z3	2	liver_evidence
Q99685-2	3	liver_evidence
Q13232	3	liver_evidence
Q92499	14	liver_evidence
Q14914	91	liver_evidence
Q7L2H7	7	liver_evidence
P30050	21	liver_evidence
Q00266	67	liver_evidence
F5GZ49	1	liver_evidence
Q9H3U5-3	2	liver_evidence
P57088	13	liver_evidence
Q14258	13	liver_evidence
H3BPK3	29	liver_evidence
P07900	150	liver_evidence
E2QRH7	6	liver_evidence
Q9HC38-2	13	liver_evidence
Q8N2G8-3	5	liver_evidence
E5RIP4	15	liver_evidence
Q7Z5P4	98	liver_evidence
Q9UHB9	15	liver_evidence
Q9Y6D5	5	liver_evidence
H3BRN4	189	liver_evidence
P05062	306	liver_evidence
P49588	66	liver_evidence
Q7L576	7	liver_evidence
P55010	4	liver_evidence
P05109	28	liver_evidence
H7BXK9	6	liver_evidence
Q6YN16	30	liver_evidence
P09211	9	liver_evidence
Q5SSJ5	19	liver_evidence
B7Z452	1	liver_evidence
O95470	5	liver_evidence
H3BLU7	19	liver_evidence
Q8NBJ5	2	liver_evidence
A8MVZ9	9	liver_evidence
Q9P0Z9	19	liver_evidence
P40227	27	liver_evidence
P36551	5	liver_evidence
Q9H061	7	liver_evidence
Q14764	39	liver_evidence
Q9BW60	2	liver_evidence
P36021	3	liver_evidence
P11226	5	liver_evidence
Q9P2B2	14	liver_evidence
U3KQU4	5	liver_evidence
C9JZR2	43	liver_evidence
P28331	52	liver_evidence
Q9UMX0-2	4	liver_evidence
B4DEK4	9	liver_evidence
P62937	42	liver_evidence
P57772	8	liver_evidence
H7C2Z6	3	liver_evidence
P02671-2	218	liver_evidence
Q9BSJ8	30	liver_evidence
K7EMQ9	4	liver_evidence
C9JJV6	4	liver_evidence
P04843	128	liver_evidence
Q92556	6	liver_evidence
C9J0K6	4	liver_evidence
P68371	165	liver_evidence
Q13885	8	liver_evidence
M0R210	13	liver_evidence
Q9BVM4	3	liver_evidence
Q9H1K4	12	liver_evidence
Q99497	25	liver_evidence
Q92973-2	19	liver_evidence
Q9NVV5-2	5	liver_evidence
Q16531	64	liver_evidence
O95182	4	liver_evidence
P63092-3	6	liver_evidence
Q96LW7-2	2	liver_evidence
P33947	20	liver_evidence
P27105	58	liver_evidence
Q969V3-2	4	liver_evidence
P22310	89	liver_evidence
P05165-2	52	liver_evidence
P57053	102	liver_evidence
P04899	18	liver_evidence
Q9NZ45	10	liver_evidence
E5RHG8	5	liver_evidence
REV__Q96M86	2	liver_evidence
P38646	148	liver_evidence
B4DT77	21	liver_evidence
F2Z2R4	1	liver_evidence
Q96RQ3	42	liver_evidence
P49368	56	liver_evidence
F8W1A4	26	liver_evidence
Q9P2R3	12	liver_evidence
P21695-2	48	liver_evidence
G3V3U5	4	liver_evidence
P61254	21	liver_evidence
Q9H9B4	26	liver_evidence
P61006	9	liver_evidence
M0R1L7	3	liver_evidence
O75396	22	liver_evidence
Q9H078-2	9	liver_evidence
P00352	256	liver_evidence
Q07075	8	liver_evidence
P01008	21	liver_evidence
E9PF19	3	liver_evidence
P36537	15	liver_evidence
Q13724-2	35	liver_evidence
P21399	111	liver_evidence
Q02818	19	liver_evidence
Q9H6S3	10	liver_evidence
Q5JTH9-2	2	liver_evidence
Q9BTZ2	22	liver_evidence
Q9Y6C2	51	liver_evidence
Q8NBN7-2	1	liver_evidence
Q9NTJ4-3	2	liver_evidence
REV__Q5JV73	3	liver_evidence
J3KQ48	7	liver_evidence
Q969Z3	50	liver_evidence
R4GMT0	4	liver_evidence
P52566	9	liver_evidence
Q9ULD0	14	liver_evidence
O95255	32	liver_evidence
P49721	8	liver_evidence
Q96BW5-2	2	liver_evidence
Q5HY57	3	liver_evidence
Q0VAN0	4	liver_evidence
Q9Y5B9	4	liver_evidence
O75306-2	10	liver_evidence
P25705	254	liver_evidence
P50225	62	liver_evidence
Q15746-4	13	liver_evidence
O76024	2	liver_evidence
J3QQ67	18	liver_evidence
Q86TI2-4	3	liver_evidence
O94875-4	33	liver_evidence
P17844	23	liver_evidence
H3BPE7	3	liver_evidence
P27338	90	liver_evidence
P54868	240	liver_evidence
Q06323	33	liver_evidence
O00743-2	4	liver_evidence
O94903	7	liver_evidence
P41252	42	liver_evidence
H3BLZ8	7	liver_evidence
Q86XE5	8	liver_evidence
P02741	10	liver_evidence
Q9H0W9-2	18	liver_evidence
Q6ZUJ8-2	6	liver_evidence
P00966	144	liver_evidence
O00291-3	3	liver_evidence
Q5SZE3	12	liver_evidence
Q9NZZ3-2	1	liver_evidence
B0UX83	2	liver_evidence
P17174	56	liver_evidence
G3V1K3	10	liver_evidence
O95715	1	liver_evidence
B4DR63	10	liver_evidence
Q53EL6-2	2	liver_evidence
Q9NR30-2	3	liver_evidence
P61313	39	liver_evidence
P07384	39	liver_evidence
CON__P08779	5	liver_evidence
Q9UGP8	18	liver_evidence
P30086	86	liver_evidence
Q9NQH7-2	2	liver_evidence
Q8WW59	25	liver_evidence
U3KPY4	1	liver_evidence
Q5SRE7-2	2	liver_evidence
CON__P00761	499	liver_evidence
P51687	22	liver_evidence
REV__A6NMY3	1	liver_evidence
Q9H8P0	1	liver_evidence
Q5SRN7	1	liver_evidence
P30498	11	liver_evidence
P47914	5	liver_evidence
P30049	4	liver_evidence
Q15166	25	liver_evidence
B1B0M1	3	liver_evidence
P55884	23	liver_evidence
P14625	311	liver_evidence
M0R0F0	17	liver_evidence
D6REX3	82	liver_evidence
P62913	24	liver_evidence
O75146	12	liver_evidence
O14745	8	liver_evidence
P35754	12	liver_evidence
P08311	16	liver_evidence
Q15459	12	liver_evidence
E9PDE8	3	liver_evidence
Q3ZCQ8	2	liver_evidence
P05783	244	liver_evidence
Q96I99	41	liver_evidence
P02751-17	203	liver_evidence
Q9BW92	11	liver_evidence
A6NJA2	19	liver_evidence
Q92734-2	11	liver_evidence
P04792	30	liver_evidence
P62917	45	liver_evidence
P25786	27	liver_evidence
E9PEM5	15	liver_evidence
K7EP07	2	liver_evidence
O14828-2	2	liver_evidence
K7ELL7	55	liver_evidence
O76031	14	liver_evidence
F8VP53	3	liver_evidence
O75955	16	liver_evidence
Q5JRA6	34	liver_evidence
REV__Q5T4S7-3	2	liver_evidence
Q969E2-2	3	liver_evidence
P49773	15	liver_evidence
P41250	18	liver_evidence
CON__P13647	7	liver_evidence
P36543-2	5	liver_evidence
P05455	9	liver_evidence
Q00688	8	liver_evidence
O15144	18	liver_evidence
F5H702	2	liver_evidence
P08246	17	liver_evidence
P33764	2	liver_evidence
Q9Y266	9	liver_evidence
K7EK07	63	liver_evidence
Q96A33-2	18	liver_evidence
Q96HC4	13	liver_evidence
Q9UBI6	8	liver_evidence
P00505	139	liver_evidence
Q05707-2	99	liver_evidence
P17050	2	liver_evidence
P56378	3	liver_evidence
Q96CN7	9	liver_evidence
K7EP04	3	liver_evidence
Q5VZR0	2	liver_evidence
Q9P0L0	22	liver_evidence
Q5T8F1	1	liver_evidence
B7Z499	3	liver_evidence
Q8TB61-3	3	liver_evidence
P14618	48	liver_evidence
Q14165	21	liver_evidence
Q32Q12	25	liver_evidence
P53602	4	liver_evidence
P05089	100	liver_evidence
E7ESA8	3	liver_evidence
P56537	8	liver_evidence
P54727	16	liver_evidence
E5RGR0	5	liver_evidence
Q9NTJ5	12	liver_evidence
Q9BVC6	4	liver_evidence
P48506	19	liver_evidence
P05177	34	liver_evidence
H3BN55	7	liver_evidence
P23528	51	liver_evidence
P30040	22	liver_evidence
P60981	17	liver_evidence
Q9Y281	17	liver_evidence
O75884	4	liver_evidence
A8K8G0	5	liver_evidence
P21397	60	liver_evidence
Q8N0X4	20	liver_evidence
P18124	29	liver_evidence
Q15019	9	liver_evidence
P12429	7	liver_evidence
Q8WXH0-7	33	liver_evidence
Q14191	1	liver_evidence
K7EPG4	2	liver_evidence
Q9Y3Y2-4	1	liver_evidence
K7EPL2	1	liver_evidence
Q9NSE4	52	liver_evidence
E7EVA0	11	liver_evidence
Q9Y2V2	8	liver_evidence
P56199	59	liver_evidence
O60763	59	liver_evidence
O75348	3	liver_evidence
Q9Y2S2	44	liver_evidence
O15143	14	liver_evidence
J3QK90	3	liver_evidence
Q9BXK5	2	liver_evidence
Q02539	1	liver_evidence
O15294	1	liver_evidence
H0YFA4	4	liver_evidence
P27144	19	liver_evidence
P02730	18	liver_evidence
H0YI98	5	liver_evidence
Q14571	18	liver_evidence
P56134-3	1	liver_evidence
O60701	87	liver_evidence
Q9NUQ8-2	3	liver_evidence
Q07065	70	liver_evidence
P05362	20	liver_evidence
C9JJT5	9	liver_evidence
B7ZKM0	5	liver_evidence
J9JIE0	1	liver_evidence
Q9BTX1-4	1	liver_evidence
P48735	131	liver_evidence
Q5TD07	19	liver_evidence
P23526	60	liver_evidence
A6NDB9	16	liver_evidence
P22059	15	liver_evidence
F8W7D6	7	liver_evidence
Q99436	5	liver_evidence
Q13435	11	liver_evidence
O75521-2	30	liver_evidence
E9PCY7	19	liver_evidence
F8VZQ9	2	liver_evidence
Q02318	23	liver_evidence
Q9HA64	5	liver_evidence
B4DWJ2	17	liver_evidence
E9PS17	3	liver_evidence
Q9BXW7-2	3	liver_evidence
P45880	34	liver_evidence
Q71UI9	4	liver_evidence
P51149	26	liver_evidence
Q9UI14	3	liver_evidence
B1ARP7	2	liver_evidence
J3KQG4	2	liver_evidence
P00338	172	liver_evidence
P15907	5	liver_evidence
P46779	17	liver_evidence
P14406	5	liver_evidence
P45974-2	25	liver_evidence
Q14677	3	liver_evidence
F8VV32	5	liver_evidence
P14324-2	17	liver_evidence
O95167	4	liver_evidence
P60842	47	liver_evidence
A0MZ66-8	5	liver_evidence
P0C7P0	7	liver_evidence
J3QRS3	15	liver_evidence
P55157	191	liver_evidence
D6RD63	2	liver_evidence
P38919	4	liver_evidence
Q00765	14	liver_evidence
P61981	26	liver_evidence
P02749	3	liver_evidence
P04217	7	liver_evidence
Q13884	16	liver_evidence
O43598	12	liver_evidence
P11387	5	liver_evidence
A6NEC0	6	liver_evidence
E9PHT6	2	liver_evidence
P07711	2	liver_evidence
P22105	121	liver_evidence
O00487	5	liver_evidence
F5H5D3	2	liver_evidence
J3QSV6	11	liver_evidence
P62906	28	liver_evidence
O94973	23	liver_evidence
Q8TEM1	3	liver_evidence
Q14108	18	liver_evidence
K7ERX7	2	liver_evidence
G3V4I0	6	liver_evidence
Q5JRX3	18	liver_evidence
P22307-7	67	liver_evidence
P29401	96	liver_evidence
O60826	2	liver_evidence
P25788-2	14	liver_evidence
Q9BRA2	10	liver_evidence
B7Z1R5	12	liver_evidence
P17516	62	liver_evidence
Q06210-2	51	liver_evidence
Q96C23	6	liver_evidence
Q9BVJ7	6	liver_evidence
A8MUB1	5	liver_evidence
P00738	195	liver_evidence
Q14376	18	liver_evidence
O14980	23	liver_evidence
P61513	14	liver_evidence
Q13825-2	4	liver_evidence
K7EIG1	28	liver_evidence
A6NKH4	5	liver_evidence
Q9UFN0	11	liver_evidence
P14780	7	liver_evidence
J3KS22	140	liver_evidence
Q96FQ6	2	liver_evidence
Q9Y320-2	2	liver_evidence
P63000	25	liver_evidence
P15153	3	liver_evidence
Q9NZL9	4	liver_evidence
P32189-1	6	liver_evidence
P06744	89	liver_evidence
Q9Y230	3	liver_evidence
Q93008-1	26	liver_evidence
P84095	5	liver_evidence
Q9Y394-2	12	liver_evidence
P48651	8	liver_evidence
P50454	10	liver_evidence
P01009	117	liver_evidence
Q02338	66	liver_evidence
REV__H0YJ04	1	liver_evidence
O60568	7	liver_evidence
Q15691	4	liver_evidence
P43490	93	liver_evidence
M0QXK2	6	liver_evidence
P21796	56	liver_evidence
P42126	33	liver_evidence
P00918	43	liver_evidence
P04004	15	liver_evidence
F8WJN3	3	liver_evidence
C9JEN3	3	liver_evidence
Q8NE71-2	11	liver_evidence
P28845	74	liver_evidence
F5H1Z6	9	liver_evidence
Q86TM6-2	5	liver_evidence
Q04917	10	liver_evidence
P27348	15	liver_evidence
P31946-2	15	liver_evidence
B7ZAR1	30	liver_evidence
Q13011	64	liver_evidence
Q13617	14	liver_evidence
P21281	6	liver_evidence
Q4G176	11	liver_evidence
Q8TCT8	5	liver_evidence
P12955	8	liver_evidence
P07306	11	liver_evidence
O75915	18	liver_evidence
F8WBH3	5	liver_evidence
F5GWE5	7	liver_evidence
C9JJ34	3	liver_evidence
P46977	60	liver_evidence
Q13057	19	liver_evidence
P49419-2	57	liver_evidence
H0Y6I0	15	liver_evidence
Q99624	6	liver_evidence
J3KND8	47	liver_evidence
P47813	6	liver_evidence
B7Z9S8	12	liver_evidence
A6NGW1	2	liver_evidence
Q9H845	14	liver_evidence
C9JEV0	1	liver_evidence
P30466	1	liver_evidence
Q9NQC3-3	42	liver_evidence
O15145	10	liver_evidence
O14773-2	27	liver_evidence
O14949	14	liver_evidence
Q99541	20	liver_evidence
P02743	11	liver_evidence
P0DJI8	14	liver_evidence
P16278-3	10	liver_evidence
B3KSH1	10	liver_evidence
O75531	6	liver_evidence
E7EQB2	58	liver_evidence
F5GZZ9	42	liver_evidence
Q9P1F3	3	liver_evidence
Q8N163-2	11	liver_evidence
P80297	18	liver_evidence
Q9BYR0	5	liver_evidence
P62979	96	liver_evidence
P05556	41	liver_evidence
P68032	28	liver_evidence
P61224-3	19	liver_evidence
H0YF29	7	liver_evidence
F5H698	20	liver_evidence
Q13228	90	liver_evidence
P04003	20	liver_evidence
P09871	11	liver_evidence
Q9BVK6	20	liver_evidence
Q93099	30	liver_evidence
R4GMR5	7	liver_evidence
B4DP17	4	liver_evidence
P62987	2	liver_evidence
CON__Q9UE12	23	liver_evidence
P61160	8	liver_evidence
F8VQ10	18	liver_evidence
Q16850	8	liver_evidence
Q9Y5L4	7	liver_evidence
P27797	120	liver_evidence
Q969Q0	8	liver_evidence
Q9BXJ8-2	11	liver_evidence
P09488	33	liver_evidence
O95832	3	liver_evidence
Q5SPZ6	2	liver_evidence
Q96G95	5	liver_evidence
P49755	25	liver_evidence
P11712	59	liver_evidence
Q99536	9	liver_evidence
P10599	18	liver_evidence
P62306	4	liver_evidence
Q9BZL1	2	liver_evidence
P01860	12	liver_evidence
P28799-2	4	liver_evidence
O43776	17	liver_evidence
F5H6E2	50	liver_evidence
F5GWV7	7	liver_evidence
P39687	6	liver_evidence
C9JF17	12	liver_evidence
Q13185	4	liver_evidence
Q9UHG3	34	liver_evidence
P13284	2	liver_evidence
Q96JB5	13	liver_evidence
P20160	12	liver_evidence
A8MXP9	37	liver_evidence
Q15274	18	liver_evidence
P02790	32	liver_evidence
O75452	66	liver_evidence
Q9NY15	7	liver_evidence
F5H1T9	7	liver_evidence
Q9BSE5	20	liver_evidence
O95292	8	liver_evidence
H3BVG0	3	liver_evidence
Q5VU13	2	liver_evidence
P07737	23	liver_evidence
Q9BXP5-5	9	liver_evidence
Q99805	27	liver_evidence
J3QLD9	12	liver_evidence
Q13630	5	liver_evidence
J3QL05	7	liver_evidence
E9PLK3	12	liver_evidence
Q8WWI5-3	11	liver_evidence
P33897	4	liver_evidence
Q9BPW8	27	liver_evidence
E7ES35	10	liver_evidence
Q5VTU8	3	liver_evidence
P36406-3	1	liver_evidence
P51857	35	liver_evidence
O75351	1	liver_evidence
Q9NRZ7-2	3	liver_evidence
B0YIW2	2	liver_evidence
P62701	46	liver_evidence
Q14139	6	liver_evidence
O00629	3	liver_evidence
P20042	5	liver_evidence
P01877	1	liver_evidence
P01876	28	liver_evidence
P82980	6	liver_evidence
P18085	32	liver_evidence
P84077	16	liver_evidence
P49720	9	liver_evidence
P62805	66	liver_evidence
P60174-1	84	liver_evidence
P60709	2	liver_evidence
Q8NI22-2	1	liver_evidence
P37802	33	liver_evidence
P53999	6	liver_evidence
P60953	17	liver_evidence
Q00839-2	103	liver_evidence
Q06520	73	liver_evidence
Q13217	11	liver_evidence
P32455	14	liver_evidence
P63244	68	liver_evidence
Q5TBF5	2	liver_evidence
O95865	6	liver_evidence
O00151	8	liver_evidence
P10632	28	liver_evidence
P11509	47	liver_evidence
P12235	12	liver_evidence
Q06033-2	2	liver_evidence
Q04760-2	14	liver_evidence
P63173	15	liver_evidence
P23284	50	liver_evidence
Q9Y3C6	2	liver_evidence
P32969	11	liver_evidence
G3V4T6	18	liver_evidence
O15173	8	liver_evidence
B1AJQ6	5	liver_evidence
H9KV48	27	liver_evidence
O00264	17	liver_evidence
P30041	80	liver_evidence
P18283	7	liver_evidence
Q9Y4W6	31	liver_evidence
Q15126	6	liver_evidence
P11216	16	liver_evidence
Q13131	17	liver_evidence
F5H0D0	1	liver_evidence
P02452	25	liver_evidence
P16190	2	liver_evidence
Q8WUY1	10	liver_evidence
C9JIZ6	17	liver_evidence
Q9Y6I3	9	liver_evidence
B4E1D7	12	liver_evidence
B7Z2X9	3	liver_evidence
P04066	4	liver_evidence
Q15493	23	liver_evidence
P68104	309	liver_evidence
Q9Y619	9	liver_evidence
B7ZKL7	4	liver_evidence
Q92504	2	liver_evidence
Q96DC8	20	liver_evidence
P08670	86	liver_evidence
O75208	10	liver_evidence
J3KTL2	14	liver_evidence
P31949	4	liver_evidence
P31689-2	6	liver_evidence
P22087	12	liver_evidence
P07919	9	liver_evidence
Q12907	30	liver_evidence
P05164-2	36	liver_evidence
Q96HY7	36	liver_evidence
J3QSY3	5	liver_evidence
Q15393	35	liver_evidence
H3BPC4	3	liver_evidence
O95671-2	6	liver_evidence
E7EMC7	2	liver_evidence
Q9UKR5	7	liver_evidence
O75368	2	liver_evidence
P05181	68	liver_evidence
F8VZJ2	11	liver_evidence
P35527	68	liver_evidence
P12956	36	liver_evidence
P51665	10	liver_evidence
P07858	37	liver_evidence
P62753	19	liver_evidence
Q8IYI6	2	liver_evidence
P80362	2	liver_evidence
P15104	10	liver_evidence
P19224	29	liver_evidence
P01625	1	liver_evidence
O75131	13	liver_evidence
P02763	40	liver_evidence
P25815	3	liver_evidence
O00571-2	30	liver_evidence
Q15056-2	3	liver_evidence
B7ZKQ9	12	liver_evidence
P07099	168	liver_evidence
G3V529	2	liver_evidence
Q53GQ0	19	liver_evidence
Q9BV57	10	liver_evidence
Q15800	7	liver_evidence
Q93100-4	11	liver_evidence
G3V2V8	5	liver_evidence
P21964-2	18	liver_evidence
E9PS97	4	liver_evidence
Q5T6W5	95	liver_evidence
Q99714	51	liver_evidence
O95497	7	liver_evidence
P10619	9	liver_evidence
Q6UX53	12	liver_evidence
P31937	25	liver_evidence
F5GXJ9	8	liver_evidence
Q9P265	4	liver_evidence
E7EU23	52	liver_evidence
P46952	36	liver_evidence
P53985	5	liver_evidence
O95528	2	liver_evidence
Q5W0H4	15	liver_evidence
H0Y8G5	20	liver_evidence
D6R938	4	liver_evidence
Q9P2M7	19	liver_evidence
Q9NSD9	7	liver_evidence
H0YMV8	3	liver_evidence
P42677	20	liver_evidence
G8JLA8	26	liver_evidence
B7Z815	14	liver_evidence
Q13616	7	liver_evidence
E7EUE1	45	liver_evidence
P00492	4	liver_evidence
A6NLG9	72	liver_evidence
Q9NVJ2	3	liver_evidence
P50135	12	liver_evidence
Q9NZ01	44	liver_evidence
J9JIE6	9	liver_evidence
M0R3D6	18	liver_evidence
Q12874	12	liver_evidence
Q01995	16	liver_evidence
B4DVY1	13	liver_evidence
Q13618-3	4	liver_evidence
Q5VVL7	12	liver_evidence
B4DKB2	2	liver_evidence
P08684	36	liver_evidence
P82909	5	liver_evidence
G3V2R9	3	liver_evidence
Q63HM1	6	liver_evidence
Q8TCT9-2	19	liver_evidence
Q9Y673	4	liver_evidence
Q8N4P3	4	liver_evidence
P60903	4	liver_evidence
Q5VY30	14	liver_evidence
H3BQK0	7	liver_evidence
F8W6I7	39	liver_evidence
P10153	2	liver_evidence
P47985	15	liver_evidence
P51689	8	liver_evidence
J3KNF8	11	liver_evidence
P33176	31	liver_evidence
Q9UBR2	20	liver_evidence
P52306-6	5	liver_evidence
B3KWE1	4	liver_evidence
CON__Q2KJC7	1	liver_evidence
O75923-15	31	liver_evidence
Q6P1A2	25	liver_evidence
P42224	17	liver_evidence
Q8N139	38	liver_evidence
P55145	21	liver_evidence
H3BT71	11	liver_evidence
Q9Y3C8	4	liver_evidence
Q96NB2	4	liver_evidence
K7ER00	10	liver_evidence
H3BRY3	3	liver_evidence
Q9Y5X1	2	liver_evidence
P62277	23	liver_evidence
P48728-3	7	liver_evidence
P16219	49	liver_evidence
Q15029-2	14	liver_evidence
Q00444	2	liver_evidence
P20132	20	liver_evidence
P29350	6	liver_evidence
Q96PE7	5	liver_evidence
P01834	14	liver_evidence
Q9NUM4	2	liver_evidence
P12830	9	liver_evidence
H0Y2V6	1	liver_evidence
P61019	16	liver_evidence
P01857	49	liver_evidence
P40261	73	liver_evidence
P50224	1	liver_evidence
P55735	13	liver_evidence
P16152	51	liver_evidence
G3V5X9	2	liver_evidence
P61353	22	liver_evidence
E7ENP0	1	liver_evidence
O60216	1	liver_evidence
Q02750-2	4	liver_evidence
C9IZN7	3	liver_evidence
B8ZZX6	9	liver_evidence
P39019	18	liver_evidence
P00156	6	liver_evidence
Q9H936	4	liver_evidence
H0YDD4	4	liver_evidence
Q6P587	8	liver_evidence
K7EL68	2	liver_evidence
F5H2M8	3	liver_evidence
E7ES33	13	liver_evidence
Q9Y512	4	liver_evidence
O43852-9	5	liver_evidence
P17568	4	liver_evidence
P26599	31	liver_evidence
Q13162	22	liver_evidence
P31513	68	liver_evidence
P47756-2	17	liver_evidence
Q32P28	3	liver_evidence
P07203	12	liver_evidence
G3V5Q1	9	liver_evidence
Q96DA6-2	1	liver_evidence
O95822-2	9	liver_evidence
Q9Y2B0	18	liver_evidence
Q05682-5	52	liver_evidence
Q3ZCM7	4	liver_evidence
Q13283	9	liver_evidence
Q9Y2X3	15	liver_evidence
P46778	7	liver_evidence
P16284-5	5	liver_evidence
Q9NUQ9	6	liver_evidence
Q9H444	1	liver_evidence
O00400	3	liver_evidence
Q9NX14	3	liver_evidence
P62750	28	liver_evidence
K7EP23	4	liver_evidence
Q9Y241	6	liver_evidence
P00747	13	liver_evidence
P11047	21	liver_evidence
P51692	3	liver_evidence
P00480	39	liver_evidence
F8VPD4	5	liver_evidence
E7ENX8	2	liver_evidence
O14672	4	liver_evidence
M0QXB5	6	liver_evidence
P54886-2	9	liver_evidence
E9PGT1	6	liver_evidence
D6RBW1	3	liver_evidence
Q8TCJ2	21	liver_evidence
P62829	13	liver_evidence
Q9Y3A6	4	liver_evidence
P51888	41	liver_evidence
A6NN80	3	liver_evidence
F8W9F8	22	liver_evidence
Q99996-5	2	liver_evidence
F8W7Q4	9	liver_evidence
P67809	10	liver_evidence
Q9UHQ9	15	liver_evidence
P63241	35	liver_evidence
P10606	8	liver_evidence
P78417	44	liver_evidence
Q13151	6	liver_evidence
P51991	40	liver_evidence
P22626-2	77	liver_evidence
P22309	14	liver_evidence
O95298	6	liver_evidence
Q86UE4	19	liver_evidence
C9JFR9	18	liver_evidence
O00299	13	liver_evidence
Q9Y3U8	5	liver_evidence
Q96BM9	10	liver_evidence
H0YB37	1	liver_evidence
Q8N766-4	4	liver_evidence
P23193-2	1	liver_evidence
O00567	10	liver_evidence
Q9H0U4	26	liver_evidence
Q12792	8	liver_evidence
Q01105-3	3	liver_evidence
P30042	22	liver_evidence
Q5BJF2	5	liver_evidence
P35558	19	liver_evidence
B1ANR0	8	liver_evidence
P69891	3	liver_evidence
P68871	185	liver_evidence
P02042	14	liver_evidence
Q8WWC4	1	liver_evidence
O75367-2	5	liver_evidence
REV__H0YHK3	3	liver_evidence
P62857	4	liver_evidence
P18827	6	liver_evidence
O95810	7	liver_evidence
G3V1L9	11	liver_evidence
B7Z817	16	liver_evidence
O14756	26	liver_evidence
Q9ULC4-2	3	liver_evidence
B3KS98	3	liver_evidence
Q9GZT3	9	liver_evidence
A8MU28	2	liver_evidence
Q9H4M9	5	liver_evidence
G3XAN4	10	liver_evidence
Q9UPV0-2	1	liver_evidence
P19652	8	liver_evidence
O95210	23	liver_evidence
Q9UBS3	2	liver_evidence
F8W6Y7	6	liver_evidence
M0QXU7	2	liver_evidence
P38117	56	liver_evidence
Q03135	7	liver_evidence
Q15843	6	liver_evidence
Q9NR31	8	liver_evidence
F5H577	2	liver_evidence
G3V1S6	18	liver_evidence
P08559-3	8	liver_evidence
P10909-4	5	liver_evidence
Q8TC12	12	liver_evidence
P00533	12	liver_evidence
O60884	3	liver_evidence
P01623	3	liver_evidence
Q9BR76	6	liver_evidence
Q02224-3	2	liver_evidence
P51648	38	liver_evidence
Q9UBV8	1	liver_evidence
Q99766	3	liver_evidence
M0QZ47	1	liver_evidence
P83111	25	liver_evidence
Q5T7C4	24	liver_evidence
Q00325-2	67	liver_evidence
REV__Q5VTL8	2	liver_evidence
P56385	14	liver_evidence
I3L1R7	6	liver_evidence
O15254-2	3	liver_evidence
P30046	27	liver_evidence
P13489	15	liver_evidence
Q9UHA4	4	liver_evidence
M0R2S2	1	liver_evidence
D6REQ6	3	liver_evidence
E9PKG6	5	liver_evidence
C9J177	4	liver_evidence
B1AUU8	4	liver_evidence
A6NFX8	15	liver_evidence
P62241	32	liver_evidence
Q8IWE2	5	liver_evidence
Q9H8H3	69	liver_evidence
P02794	64	liver_evidence
P39656	28	liver_evidence
P08579	2	liver_evidence
P11277-3	6	liver_evidence
R4GNJ5	1	liver_evidence
P00734	18	liver_evidence
P46781	22	liver_evidence
P20340-2	15	liver_evidence
Q86YT5-2	11	liver_evidence
G3V1C3	5	liver_evidence
Q6NUN0	14	liver_evidence
Q8WU90	2	liver_evidence
H3BV04	2	liver_evidence
C9JX92	8	liver_evidence
Q9P2X0	3	liver_evidence
B7Z7Q6	2	liver_evidence
O15067	3	liver_evidence
I3L438	2	liver_evidence
Q9HAT2-2	1	liver_evidence
Q92688	18	liver_evidence
O76094-2	6	liver_evidence
P30085	20	liver_evidence
Q9Y6B6	21	liver_evidence
REV__P35626	1	liver_evidence
P30039	33	liver_evidence
P60891	11	liver_evidence
E9PNF5	1	liver_evidence
J3KN00	10	liver_evidence
Q5QPK2	4	liver_evidence
Q15819	1	liver_evidence
P48444	24	liver_evidence
E9PKH6	6	liver_evidence
Q5T3I4	3	liver_evidence
Q93052	1	liver_evidence
P01903	4	liver_evidence
Q9HDC9	40	liver_evidence
H0YKR4	8	liver_evidence
B7Z7N2	2	liver_evidence
P35218	1	liver_evidence
P62314	9	liver_evidence
Q9UII2	3	liver_evidence
P24539	28	liver_evidence
J3QQT2	20	liver_evidence
B4DZH6	8	liver_evidence
E9PP55	1	liver_evidence
Q9UBS4	11	liver_evidence
O00625	6	liver_evidence
S4R350	3	liver_evidence
Q8N0U8	3	liver_evidence
P13498	8	liver_evidence
Q06124-2	9	liver_evidence
Q9NZ08	8	liver_evidence
O43390	23	liver_evidence
Q969H8	7	liver_evidence
C9JRH1	1	liver_evidence
E7ERV9	5	liver_evidence
Q9UJC5	5	liver_evidence
P09601	12	liver_evidence
Q96S66-4	3	liver_evidence
Q86TV2	3	liver_evidence
P00414	8	liver_evidence
Q5BKZ1-3	1	liver_evidence
O95372	4	liver_evidence
P30044-2	25	liver_evidence
Q5JR04	7	liver_evidence
E9PIA8	5	liver_evidence
O15212	1	liver_evidence
K4DI93	6	liver_evidence
Q13619-2	1	liver_evidence
E9PMS6	5	liver_evidence
F5H8H2	7	liver_evidence
S4R435	1	liver_evidence
O43143	7	liver_evidence
CON__Q6NTB9	6	liver_evidence
P10155-3	7	liver_evidence
P62195-2	7	liver_evidence
E7ESL0	2	liver_evidence
P13688-2	5	liver_evidence
P27169	11	liver_evidence
Q5T9B7	10	liver_evidence
Q9P2D7-3	1	liver_evidence
P35503	17	liver_evidence
Q14019	8	liver_evidence
D6R9P3	8	liver_evidence
O43920	3	liver_evidence
O95168-2	6	liver_evidence
H7C2W9	7	liver_evidence
Q969X5-2	19	liver_evidence
Q6UX06	3	liver_evidence
F5H677	1	liver_evidence
Q8NBQ5	30	liver_evidence
Q86WA6-2	19	liver_evidence
Q14894	4	liver_evidence
J3KP58	5	liver_evidence
F5H157	2	liver_evidence
A8MWK3	13	liver_evidence
B4DLN1	18	liver_evidence
Q99643	11	liver_evidence
G3XAN8	2	liver_evidence
G3V0I5	8	liver_evidence
Q8WXF1-2	2	liver_evidence
P35237	9	liver_evidence
H0YFH3	7	liver_evidence
O96011	4	liver_evidence
Q8NCM8	4	liver_evidence
P52790	2	liver_evidence
Q96HE7	14	liver_evidence
P36969-2	11	liver_evidence
P62244	5	liver_evidence
Q9UBQ0	12	liver_evidence
Q5JTJ3-3	1	liver_evidence
Q06136	7	liver_evidence
P18859	4	liver_evidence
Q9HD45	15	liver_evidence
REV__H0YFF5	2	liver_evidence
B0QY89	27	liver_evidence
E7ETR5	9	liver_evidence
P51571	12	liver_evidence
Q92887	13	liver_evidence
Q00577	5	liver_evidence
B1ALH6	7	liver_evidence
P56556	6	liver_evidence
Q13347	3	liver_evidence
Q92820	28	liver_evidence
P53007	26	liver_evidence
P56470	11	liver_evidence
Q9NZN4	10	liver_evidence
B3KY94	6	liver_evidence
O15031	5	liver_evidence
Q9UHX1-4	3	liver_evidence
P50053-2	46	liver_evidence
D6RIY6	1	liver_evidence
P53370	3	liver_evidence
Q15717	6	liver_evidence
Q9BUH6	2	liver_evidence
CON__P08727	2	liver_evidence
Q16795	19	liver_evidence
B7ZW72	3	liver_evidence
P62273	7	liver_evidence
P00740-2	8	liver_evidence
Q14247-3	5	liver_evidence
E5RK48	1	liver_evidence
H0YKU1	1	liver_evidence
Q96EK6	13	liver_evidence
H3BN98	20	liver_evidence
Q56VL3	12	liver_evidence
P49458	7	liver_evidence
Q8IYQ7	5	liver_evidence
Q9BSH4	4	liver_evidence
B7ZAM9	2	liver_evidence
F5H008	2	liver_evidence
P07195	9	liver_evidence
Q9H3N1	2	liver_evidence
M0R0N4	10	liver_evidence
Q12882	15	liver_evidence
Q96AC1	32	liver_evidence
Q13492-3	4	liver_evidence
Q9H307	4	liver_evidence
P69905	123	liver_evidence
P15374	5	liver_evidence
Q2M389	5	liver_evidence
E9PKP7	2	liver_evidence
B8ZZN6	3	liver_evidence
E9PIR7	6	liver_evidence
B4DJP7	7	liver_evidence
Q5TCM7	3	liver_evidence
J3KNT0	17	liver_evidence
Q9NVP1	5	liver_evidence
P07360	5	liver_evidence
P31512	1	liver_evidence
H7C0X4	4	liver_evidence
Q9UBM7	16	liver_evidence
H0Y9C7	1	liver_evidence
Q9UGT4	1	liver_evidence
Q02094	1	liver_evidence
P22352	3	liver_evidence
Q8TDN6	1	liver_evidence
Q9P0S9	4	liver_evidence
P51884	46	liver_evidence
P02747	6	liver_evidence
P22760	8	liver_evidence
P62993-2	2	liver_evidence
Q9UI09	5	liver_evidence
P62330	15	liver_evidence
Q9NTN3	9	liver_evidence
P05198	10	liver_evidence
C9JVN9	2	liver_evidence
O60613	1	liver_evidence
J3KN10	1	liver_evidence
Q9UKV5	8	liver_evidence
P00488	8	liver_evidence
O43396	5	liver_evidence
Q9HCN8	4	liver_evidence
E9PKH0	9	liver_evidence
Q8TD22	4	liver_evidence
P68431	1	liver_evidence
Q71DI3	1	liver_evidence
Q9UHN6-2	1	liver_evidence
Q16610	1	liver_evidence
Q9P035	36	liver_evidence
P80748	1	liver_evidence
F8VQW0	10	liver_evidence
P11908	3	liver_evidence
H7C3D3	1	liver_evidence
P48047	31	liver_evidence
P14866	31	liver_evidence
Q8WWP7	1	liver_evidence
P01871	17	liver_evidence
B7ZLZ2	1	liver_evidence
A2ACR1	3	liver_evidence
Q8TAT6	3	liver_evidence
E7ET76	4	liver_evidence
Q9Y5P6	6	liver_evidence
Q16222-3	6	liver_evidence
CON__Q28194	3	liver_evidence
Q13045-2	5	liver_evidence
M0QXH0	1	liver_evidence
Q8N4Q0	2	liver_evidence
B1AH87	2	liver_evidence
P31153	6	liver_evidence
Q9UI32	3	liver_evidence
G5E9I3	2	liver_evidence
P62861	5	liver_evidence
Q9BU23-2	5	liver_evidence
Q9Y2H6-2	10	liver_evidence
Q5JWQ4	1	liver_evidence
K7EIG7	7	liver_evidence
E9PJE4	1	liver_evidence
O15258	24	liver_evidence
H7C4M9	1	liver_evidence
Q5T985	10	liver_evidence
P22894	3	liver_evidence
O00483	10	liver_evidence
P12724	3	liver_evidence
P61106	15	liver_evidence
C9J306	9	liver_evidence
Q12904	3	liver_evidence
C9IZE4	8	liver_evidence
O75116	7	liver_evidence
S4R3D6	1	liver_evidence
P07327	56	liver_evidence
R4GNE8	3	liver_evidence
P51580	7	liver_evidence
A6ND91	22	liver_evidence
Q9NXA8-4	3	liver_evidence
Q9NPJ3-2	8	liver_evidence
P08123	37	liver_evidence
Q8IVS8	7	liver_evidence
Q15907	10	liver_evidence
Q9UHV9	2	liver_evidence
Q9BYR6	1	liver_evidence
K7EM18	3	liver_evidence
H0YNG3	6	liver_evidence
P27701	3	liver_evidence
B4DIZ2	5	liver_evidence
P62072	2	liver_evidence
Q9Y3A5	8	liver_evidence
Q8TCT9-5	1	liver_evidence
REV__A6NDB9	1	liver_evidence
K7ENA8	2	liver_evidence
O14979-3	1	liver_evidence
G3V1U5	5	liver_evidence
P98179	2	liver_evidence
B7Z7P8	3	liver_evidence
Q08945	2	liver_evidence
Q14240	5	liver_evidence
Q9H0U3	6	liver_evidence
H0Y4T6	1	liver_evidence
Q5W145	3	liver_evidence
Q9HBR0	4	liver_evidence
P53597	30	liver_evidence
E5RGY0	4	liver_evidence
Q8WZ42-3	3	liver_evidence
Q9H3H5-2	5	liver_evidence
F2Z2V1	4	liver_evidence
O43172-2	4	liver_evidence
E9PLL6	12	liver_evidence
Q96KH7	2	liver_evidence
REV__E9PBL8	2	liver_evidence
Q9Y6L6	14	liver_evidence
P23634-7	12	liver_evidence
I3L4J1	2	liver_evidence
B4E2S7	10	liver_evidence
P09668	3	liver_evidence
P20674	7	liver_evidence
K7EL26	1	liver_evidence
Q9Y3D6	4	liver_evidence
P02775	2	liver_evidence
P26583	8	liver_evidence
Q9BT25-3	1	liver_evidence
P63208	9	liver_evidence
P41227-2	1	liver_evidence
Q10713	1	liver_evidence
P21291	18	liver_evidence
G3XAM2	5	liver_evidence
H7C4I6	1	liver_evidence
Q6UW68	22	liver_evidence
B4DJT1	1	liver_evidence
Q9NRF8	2	liver_evidence
E9PMI6	1	liver_evidence
P35575	10	liver_evidence
P06213-2	5	liver_evidence
K7EM02	4	liver_evidence
P04181	4	liver_evidence
F5H410	1	liver_evidence
P11172-2	2	liver_evidence
Q96AB3	16	liver_evidence
P18428	14	liver_evidence
E9PPI4	3	liver_evidence
Q9Y3I0	8	liver_evidence
Q9UHE5	9	liver_evidence
I3L2H6	2	liver_evidence
P24844	2	liver_evidence
P62312	4	liver_evidence
P10635	1	liver_evidence
U3KPS2	16	liver_evidence
Q9UHD9	1	liver_evidence
P20908	2	liver_evidence
P58546	3	liver_evidence
Q9UP52-3	9	liver_evidence
P0DJI9	2	liver_evidence
Q9Y2S6	2	liver_evidence
Q9NQC3	4	liver_evidence
P02750	2	liver_evidence
H0YJ77	2	liver_evidence
Q6ZVX9	1	liver_evidence
F8WA86	2	liver_evidence
Q7Z434-4	1	liver_evidence
CON__Q86YZ3	2	liver_evidence
Q92878-3	6	liver_evidence
Q14558	3	liver_evidence
P30711	15	liver_evidence
H0YCW6	3	liver_evidence
Q5T8U5	30	liver_evidence
E7EP00	15	liver_evidence
J3KNK7	9	liver_evidence
B4DLH2	2	liver_evidence
P35813-2	2	liver_evidence
D6RB81	3	liver_evidence
S4R329	1	liver_evidence
J3KNQ3	8	liver_evidence
Q969I6	5	liver_evidence
A6NIV2	2	liver_evidence
Q5URX0	10	liver_evidence
O00422	4	liver_evidence
B4DW79	7	liver_evidence
E7ENH5	4	liver_evidence
R4GMU8	2	liver_evidence
Q86SX6	4	liver_evidence
B9A069	2	liver_evidence
E9PEB5	9	liver_evidence
P14621	5	liver_evidence
P08519	5	liver_evidence
O15245	7	liver_evidence
P51148	8	liver_evidence
B4DJA5	3	liver_evidence
Q8NFW8	2	liver_evidence
P07305	29	liver_evidence
K7EK00	2	liver_evidence
G3V3T3	3	liver_evidence
P62942	3	liver_evidence
Q08357	1	liver_evidence
REV__Q5TB80-2	1	liver_evidence
O43809	6	liver_evidence
J3KR91	1	liver_evidence
REV__Q9H0R6	3	liver_evidence
P26885	11	liver_evidence
Q9UF12	3	liver_evidence
Q92882	1	liver_evidence
Q5QPM1	4	liver_evidence
C9JDR0	2	liver_evidence
Q9Y5S9-2	2	liver_evidence
P30533	3	liver_evidence
A6NGJ0	1	liver_evidence
P62316	4	liver_evidence
REV__B9A063	1	liver_evidence
H0YN18	11	liver_evidence
P13671	1	liver_evidence
B4DEB8	1	liver_evidence
Q9NW15-2	2	liver_evidence
Q9UKG1	2	liver_evidence
P02549-2	6	liver_evidence
B4DEJ6	2	liver_evidence
F8VV35	5	liver_evidence
E5RIT6	1	liver_evidence
Q86UB9-2	8	liver_evidence
REV__Q6UXY8-2	1	liver_evidence
Q5T4S7-3	4	liver_evidence
O95140	8	liver_evidence
F5H5P2	8	liver_evidence
Q8IUZ5	3	liver_evidence
O60264	4	liver_evidence
REV__D6RBV9	2	liver_evidence
P62333	5	liver_evidence
H0Y4R1	3	liver_evidence
U3KPV2	6	liver_evidence
P61960	2	liver_evidence
P08621-3	6	liver_evidence
O00186	6	liver_evidence
J3QL56	5	liver_evidence
O95573	4	liver_evidence
H7C386	2	liver_evidence
P23368	3	liver_evidence
Q9NQT8	5	liver_evidence
G5E9Q7	3	liver_evidence
Q12768	9	liver_evidence
F8VXC8	4	liver_evidence
P55957	4	liver_evidence
H0Y360	4	liver_evidence
F8W9X7	3	liver_evidence
Q8IWW8-2	4	liver_evidence
Q6PCB0	1	liver_evidence
H3BR35	7	liver_evidence
A6H8Z3	2	liver_evidence
Q6UWP7-3	3	liver_evidence
B4DP21	8	liver_evidence
Q8IUE6	6	liver_evidence
D6RBJ7	8	liver_evidence
P03905	10	liver_evidence
Q99735	12	liver_evidence
J3QR09	22	liver_evidence
B1AMT1	1	liver_evidence
Q8N5K1	7	liver_evidence
P10644	9	liver_evidence
O43837-2	1	liver_evidence
G3XA86	3	liver_evidence
F5H6I0	9	liver_evidence
P78347-2	2	liver_evidence
H0YCK3	4	liver_evidence
P19623	2	liver_evidence
O14617-4	5	liver_evidence
REV__H7BYN6	1	liver_evidence
A8MXY0	1	liver_evidence
P52597	3	liver_evidence
E9PB14	2	liver_evidence
P52569-2	10	liver_evidence
M0R208	4	liver_evidence
H0YAT2	2	liver_evidence
Q58FF8	7	liver_evidence
Q6UXV4	3	liver_evidence
P27487	15	liver_evidence
P31213	2	liver_evidence
Q9BX66-9	8	liver_evidence
H3BV55	6	liver_evidence
P78329	7	liver_evidence
F5GZS6	5	liver_evidence
H7C1U8	3	liver_evidence
P04844-2	1	liver_evidence
Q9BW72	2	liver_evidence
Q86YN1	2	liver_evidence
Q6IAA8	2	liver_evidence
P21266	6	liver_evidence
H0YMU3	2	liver_evidence
Q5JVZ8	2	liver_evidence
K7EPA3	3	liver_evidence
P0CW22	23	liver_evidence
P17931	3	liver_evidence
Q15366-6	15	liver_evidence
Q9NTI5-2	2	liver_evidence
P36222	3	liver_evidence
Q6NUQ4-2	6	liver_evidence
K7EL62	1	liver_evidence
F2Z2Y8	2	liver_evidence
O76062	4	liver_evidence
P03928	6	liver_evidence
P46939	10	liver_evidence
O75936	2	liver_evidence
O75439	2	liver_evidence
REV__H0Y905	1	liver_evidence
E9PJK1	16	liver_evidence
G3V4P8	4	liver_evidence
REV__Q9BTW9-5	3	liver_evidence
H0Y7V4	1	liver_evidence
E9PH82	2	liver_evidence
Q16719	6	liver_evidence
E5RHW4	15	liver_evidence
Q9P0U4	2	liver_evidence
Q13464	4	liver_evidence
D6RHU3	1	liver_evidence
Q9BU61-2	2	liver_evidence
Q5H945	1	liver_evidence
E7EQ69	4	liver_evidence
P24666	6	liver_evidence
A6NML8	3	liver_evidence
O43704	2	liver_evidence
Q08722-2	4	liver_evidence
E9PCQ3	1	liver_evidence
Q8IWA5-3	1	liver_evidence
J3QLE5	9	liver_evidence
Q9Y6K0	5	liver_evidence
Q02809	2	liver_evidence
O60841	3	liver_evidence
P28330	5	liver_evidence
Q07812-7	4	liver_evidence
H0YBW4	1	liver_evidence
Q5SZ82	1	liver_evidence
Q9Y295	2	liver_evidence
P14174	7	liver_evidence
Q8TCS8	4	liver_evidence
B4DUC8	2	liver_evidence
P04839	13	liver_evidence
Q01581	17	liver_evidence
O00764-2	9	liver_evidence
Q5VWC4	4	liver_evidence
P46063	1	liver_evidence
Q6PI48	1	liver_evidence
Q9NRK6	1	liver_evidence
Q8IYB8	2	liver_evidence
C9JJQ5	3	liver_evidence
REV__K7EIG7	1	liver_evidence
Q92604	1	liver_evidence
B7Z3X4	2	liver_evidence
Q9NP72	3	liver_evidence
J3KNE3	2	liver_evidence
J3QSY4	2	liver_evidence
O75387	3	liver_evidence
R4GNH3	5	liver_evidence
F5GXC8	4	liver_evidence
K7EPQ7	1	liver_evidence
P05387	11	liver_evidence
H7BYD0	6	liver_evidence
Q86UX7-2	8	liver_evidence
K7EIJ6	5	liver_evidence
P11177-3	6	liver_evidence
O95881	2	liver_evidence
K7EM73	4	liver_evidence
Q14353	9	liver_evidence
P17735	3	liver_evidence
Q86VD7	2	liver_evidence
P03886	2	liver_evidence
Q9H0A0	4	liver_evidence
Q9Y223	5	liver_evidence
Q08J23-3	1	liver_evidence
Q12905	7	liver_evidence
P17612	7	liver_evidence
H0YAS9	1	liver_evidence
K7EJL1	4	liver_evidence
CON__Q14533	2	liver_evidence
Q687X5-2	5	liver_evidence
F5GWS8	3	liver_evidence
E7EUY6	2	liver_evidence
P00403	18	liver_evidence
O95477	2	liver_evidence
Q2PZI1	2	liver_evidence
P08237	1	liver_evidence
REV__F8W8G8	6	liver_evidence
M0QYZ0	3	liver_evidence
O60869-2	3	liver_evidence
Q8NB49-2	4	liver_evidence
P59666	12	liver_evidence
Q9NX47	2	liver_evidence
Q96IJ6	5	liver_evidence
J3KQ32	3	liver_evidence
C9J363	2	liver_evidence
P49888	4	liver_evidence
Q9NRX5	2	liver_evidence
E7ETB3	14	liver_evidence
C9JIG9	3	liver_evidence
E9PC44	1	liver_evidence
Q7Z3C6-2	2	liver_evidence
E9PHS0	1	liver_evidence
Q14118	1	liver_evidence
Q92900-2	4	liver_evidence
Q96LZ7	5	liver_evidence
E7EW20	12	liver_evidence
Q9H1X3	3	liver_evidence
Q5TFJ7	1	liver_evidence
P62745	2	liver_evidence
Q9P000-2	1	liver_evidence
Q99959-2	6	liver_evidence
Q9UJW0-2	1	liver_evidence
Q10567-2	1	liver_evidence
E9PGB5	1	liver_evidence
Q3ZCW2	1	liver_evidence
P20020-6	1	liver_evidence
Q08830	6	liver_evidence
P31994-2	1	liver_evidence
C9JJ47	6	liver_evidence
H7BXK7	1	liver_evidence
CON__Q8BGZ7	1	liver_evidence
Q8NEW0	5	liver_evidence
Q9NRX4-2	4	liver_evidence
A6NK28	1	liver_evidence
H0YGQ3	4	liver_evidence
Q13505-3	3	liver_evidence
P08754	1	liver_evidence
REV__Q9H013-2	1	liver_evidence
H0YEK7	1	liver_evidence
Q8N6L1	2	liver_evidence
C9K0U8	10	liver_evidence
REV__B7Z419	1	liver_evidence
Q9H2W6	4	liver_evidence
E9PQY2	2	liver_evidence
Q9GZM7-3	1	liver_evidence
B3KXD6	2	liver_evidence
H0YGJ7	2	liver_evidence
Q9HD40-3	1	liver_evidence
O15400-2	2	liver_evidence
C9JEH7	2	liver_evidence
P10109	7	liver_evidence
G3XAP3	2	liver_evidence
E9PFH4	2	liver_evidence
C9J2Y9	4	liver_evidence
Q14789	13	liver_evidence
Q14534	3	liver_evidence
O00469	3	liver_evidence
C9JQ41	2	liver_evidence
O75844	2	liver_evidence
Q06203	2	liver_evidence
Q7RTV0	1	liver_evidence
O75251	7	liver_evidence
J3KN69	1	liver_evidence
Q8IX12-2	2	liver_evidence
Q7Z2W9-2	1	liver_evidence
Q4KMQ2-3	2	liver_evidence
P62736	2	liver_evidence
Q9UMS4	10	liver_evidence
P84074	2	liver_evidence
O75436	3	liver_evidence
Q9HB71-3	3	liver_evidence
O00757	7	liver_evidence
H7BXW7	6	liver_evidence
P16403	5	liver_evidence
Q07666-2	8	liver_evidence
P06702	15	liver_evidence
A6NNI4	3	liver_evidence
Q9Y333	6	liver_evidence
REV__Q8IZF0	1	liver_evidence
P42766	9	liver_evidence
A6PVN5	4	liver_evidence
Q9UJ68-4	2	liver_evidence
Q16778	4	liver_evidence
F5GYC4	3	liver_evidence
E7ETK0	13	liver_evidence
E7ESZ7	7	liver_evidence
K7ENE3	2	liver_evidence
Q5QP88	1	liver_evidence
Q8N490-4	1	liver_evidence
Q8NBF2	2	liver_evidence
C9JQD4	1	liver_evidence
CON__Q3ZBD7	2	liver_evidence
I3L4Z8	3	liver_evidence
B7ZBJ7	1	liver_evidence
Q96L92-2	4	liver_evidence
O95721	2	liver_evidence
D6RG39	5	liver_evidence
Q9BWH2	3	liver_evidence
F5H169	1	liver_evidence
CON__REFSEQ:XP_092267	4	liver_evidence
O96008	2	liver_evidence
C9JA28	8	liver_evidence
F5H5V6	2	liver_evidence
F8WB44	1	liver_evidence
E9PD98	2	liver_evidence
CON__Q8IUT8	5	liver_evidence
P48995-2	1	liver_evidence
Q8N4Q1	3	liver_evidence
O14681	5	liver_evidence
P17655	13	liver_evidence
G5E9Z2	4	liver_evidence
I3L2H8	1	liver_evidence
E9PSB8	3	liver_evidence
H7BYM6	1	liver_evidence
P62888	18	liver_evidence
Q15651-2	4	liver_evidence
P60866	14	liver_evidence
B4E3S0	3	liver_evidence
P04035-2	1	liver_evidence
P24462	1	liver_evidence
H7C0Q6	6	liver_evidence
P62820	4	liver_evidence
P63218	6	liver_evidence
P63167	9	liver_evidence
B4E2J1	2	liver_evidence
A1L188	1	liver_evidence
P28072	3	liver_evidence
F8VXD2	1	liver_evidence
H0YBU8	1	liver_evidence
G5E9W9	1	liver_evidence
Q9UMX3	1	liver_evidence
E7EWD9	1	liver_evidence
B4DEY5	1	liver_evidence
B4DR52	9	liver_evidence
Q5TZA2	5	liver_evidence
Q9Y646	5	liver_evidence
P24534	6	liver_evidence
P02786	3	liver_evidence
Q9Y6H1	2	liver_evidence
Q8TDG2	1	liver_evidence
P08697	5	liver_evidence
Q6ZNB7	2	liver_evidence
J3KR97	2	liver_evidence
O43422	1	liver_evidence
H0Y9M8	2	liver_evidence
J3KN67	2	liver_evidence
REV__C9JXC3	1	liver_evidence
H7C585	2	liver_evidence
Q13637	4	liver_evidence
REV__CON__P15497	2	liver_evidence
Q8N5M1	2	liver_evidence
O43681	3	liver_evidence
O60518	2	liver_evidence
P08034	11	liver_evidence
Q99808	3	liver_evidence
Q86Y39	2	liver_evidence
REV__B4DHX2	3	liver_evidence
Q9UHD8-7	12	liver_evidence
D6RA08	5	liver_evidence
Q9NZJ4-2	5	liver_evidence
P21589-2	2	liver_evidence
Q5JSM3	2	liver_evidence
E9PMR4	4	liver_evidence
B7Z2A7	3	liver_evidence
P42345	2	liver_evidence
P61081	2	liver_evidence
K7ENG2	4	liver_evidence
P48507	3	liver_evidence
P55899	3	liver_evidence
O95197-3	10	liver_evidence
REV__Q3LIE5-3	2	liver_evidence
Q5VW52	2	liver_evidence
O95486	4	liver_evidence
E9PKV2	2	liver_evidence
H0YK62	4	liver_evidence
Q9UMX5	1	liver_evidence
H0Y886	3	liver_evidence
Q8IV08	2	liver_evidence
Q96C19	4	liver_evidence
CON__P07477	11	liver_evidence
P06727	2	liver_evidence
REV__F8WCP2	1	liver_evidence
P55268	2	liver_evidence
P84085	4	liver_evidence
O75192	1	liver_evidence
P17152	5	liver_evidence
Q969I3	5	liver_evidence
P20290-2	5	liver_evidence
P21953	5	liver_evidence
O75828	3	liver_evidence
F8W9B8	2	liver_evidence
Q9Y289	4	liver_evidence
Q8TBA6-2	3	liver_evidence
Q5JNZ5	4	liver_evidence
Q92520	1	liver_evidence
H3BLU6	2	liver_evidence
A6NKE1	2	liver_evidence
F8VNS3	1	liver_evidence
P21462	1	liver_evidence
P60059	4	liver_evidence
S4R371	3	liver_evidence
F8WC33	1	liver_evidence
REV__C9JME8	1	liver_evidence
E9PCX2	5	liver_evidence
Q92575	7	liver_evidence
P68363	33	liver_evidence
A6NDF3	2	liver_evidence
P00846	8	liver_evidence
F6T1J1	3	liver_evidence
P52630-4	2	liver_evidence
K7EKP1	1	liver_evidence
Q05BA3	1	liver_evidence
REV__Q9P225-2	2	liver_evidence
Q96MV1	5	liver_evidence
J3KR58	6	liver_evidence
Q8IUX8	1	liver_evidence
Q8NBQ7	1	liver_evidence
Q7L9B9	9	liver_evidence
Q5R3B4	33	liver_evidence
P25098	1	liver_evidence
G3V2F7	5	liver_evidence
Q9Y584	1	liver_evidence
P05981	1	liver_evidence
P62136	3	liver_evidence
D6RBJ9	1	liver_evidence
Q9Y4G6	1	liver_evidence
P54802	4	liver_evidence
E9PLT0	3	liver_evidence
Q92538	1	liver_evidence
P01621	1	liver_evidence
K7ER15	3	liver_evidence
Q9HAW7	1	liver_evidence
M0QYC9	2	liver_evidence
REV__C9JS59	2	liver_evidence
REV__Q6UWU2-2	1	liver_evidence
Q9HC07	4	liver_evidence
J3KNL6	2	liver_evidence
C9JJ19	2	liver_evidence
J3KNN3	2	liver_evidence
Q567V2-2	2	liver_evidence
I3L4N6	3	liver_evidence
Q6UWH4-3	1	liver_evidence
REV__G3V342	1	liver_evidence
O15084-2	2	liver_evidence
Q96HA9	3	liver_evidence
O14561	6	liver_evidence
Q9NTX5-3	8	liver_evidence
E9PP31	5	liver_evidence
Q9Y4E6-2	2	liver_evidence
O43741	2	liver_evidence
Q92621	2	liver_evidence
Q9NRP0	9	liver_evidence
F5GY80	1	liver_evidence
F5H325	2	liver_evidence
F8W9D1	7	liver_evidence
P34810-2	3	liver_evidence
J3KT79	1	liver_evidence
F5GXK8	1	liver_evidence
K7EQ23	1	liver_evidence
O75223-3	1	liver_evidence
REV__Q9H3U1-2	1	liver_evidence
Q13813-2	2	liver_evidence
E7EMB1	1	liver_evidence
Q04941-2	1	liver_evidence
Q5T1M5-2	2	liver_evidence
REV__U3KPZ7	3	liver_evidence
REV__Q9NVU7-2	1	liver_evidence
REV__Q15386	1	liver_evidence
Q8N490-2	1	liver_evidence
Q9UHD2	1	liver_evidence
M0R226	1	liver_evidence
Q86VU5	2	liver_evidence
G3V1Y8	2	liver_evidence
Q32MZ4-4	1	liver_evidence
REV__Q5CZC0-2	4	liver_evidence
Q08378-2	2	liver_evidence
P49459	1	liver_evidence
O75394	2	liver_evidence
Q5H8X8	3	liver_evidence
C9JXK0	4	liver_evidence
E5RJZ1	2	liver_evidence
E7EQJ3	1	liver_evidence
Q9BVL4	2	liver_evidence
REV__E9PSF2	1	liver_evidence
A6NIR2	1	liver_evidence
Q86YS6	3	liver_evidence
P46087-3	1	liver_evidence
I6L8B7	3	liver_evidence
CON__Q92764	2	liver_evidence
P01112	2	liver_evidence
P62070	2	liver_evidence
B7Z844	1	liver_evidence
H0YDP9	4	liver_evidence
F8VNP4	3	liver_evidence
A0PJX8	2	liver_evidence
B8ZZU8	4	liver_evidence
Q9H8Y8-2	1	liver_evidence
REV__H0Y6I0	1	liver_evidence
G5E943	1	liver_evidence
P52732	1	liver_evidence
Q9BZW4-2	1	liver_evidence
H7C0J4	1	liver_evidence
I3L1K7	1	liver_evidence
P51991-2	1	liver_evidence
C9JSZ2	1	liver_evidence
Q9NP74-3	1	liver_evidence
F5GWH5	2	liver_evidence
E9PLM9	1	liver_evidence
Q9NPE3	2	liver_evidence
E9PBT8	1	liver_evidence
REV__B2RXH2	1	liver_evidence
C9J486	1	liver_evidence
F8VZN8	2	liver_evidence
Q9Y6A9	9	liver_evidence
Q9BWJ5	3	liver_evidence
P63132	2	liver_evidence
E5RFW4	1	liver_evidence
F8WCT9	1	liver_evidence
P62760	1	liver_evidence
P61009	7	liver_evidence
J3QRM9	1	liver_evidence
C9JXI5	1	liver_evidence
G3V5T0	3	liver_evidence
F8W8Z9	2	liver_evidence
Q7Z4H8	2	liver_evidence
A0PK00	1	liver_evidence
Q07507	3	liver_evidence
P23434	1	liver_evidence
Q96KX2	1	liver_evidence
B4DYG4	1	liver_evidence
H7BYV1	1	liver_evidence
J3QK84	2	liver_evidence
C9JYI4	3	liver_evidence
P48065	5	liver_evidence
Q9Y5U9	3	liver_evidence
P15531	2	liver_evidence
J3KQ88	2	liver_evidence
Q8N5L8	1	liver_evidence
P57105	2	liver_evidence
P82664	1	liver_evidence
D6R9Z7	2	liver_evidence
B7ZBM0	1	liver_evidence
Q9UJY4	1	liver_evidence
Q9P273	1	liver_evidence
C9JAB2	2	liver_evidence
Q7Z5R6	2	liver_evidence
Q01081	1	liver_evidence
P30273	2	liver_evidence
P34931	1	liver_evidence
CON__Q14525	4	liver_evidence
E9PB61	4	liver_evidence
H7C2P7	1	liver_evidence
Q9NZJ7-2	2	liver_evidence
I3NI30	1	liver_evidence
P02745	2	liver_evidence
P60369	2	liver_evidence
Q5T9A4	2	liver_evidence
REV__P01712	3	liver_evidence
C9J8T6	1	liver_evidence
P57721-5	1	liver_evidence
P57057	2	liver_evidence
A8MUX0	3	liver_evidence
REV__E5RFE8	1	liver_evidence
P49454	1	liver_evidence
Q9H2M9	3	liver_evidence
CON__Q9BYQ8	3	liver_evidence
CON__Q9BYQ7	1	liver_evidence
P0C0L4	7	liver_evidence
P60602-2	1	liver_evidence
Q96I36	2	liver_evidence
H3BNA1	1	liver_evidence
K7EPV0	2	liver_evidence
Q9Y694-4	1	liver_evidence
Q8N944	1	liver_evidence
Q5T6H7	3	liver_evidence
P09132	4	liver_evidence
B1ALC0	1	liver_evidence
Q9BUT1	13	liver_evidence
H3BMW4	3	liver_evidence
Q7Z7H5-3	1	liver_evidence
H0YDB2	2	liver_evidence
Q01082-3	1	liver_evidence
CON__REFSEQ:XP_986630	2	liver_evidence
REV__Q9NXC5-2	1	liver_evidence
P53675-2	7	liver_evidence
Q59GN2	2	liver_evidence
Q96M94	2	liver_evidence
REV__P49792	10	liver_evidence
REV__Q53QW1	1	liver_evidence
P29692-3	1	liver_evidence
E7EWM1	1	liver_evidence
Q9HBH1	1	liver_evidence
Q93034	1	liver_evidence
Q9Y2D5	1	liver_evidence
J3KN66	4	liver_evidence
P62834	2	liver_evidence
Q969M3	3	liver_evidence
P46100-2	8	liver_evidence
Q9BUP0	2	liver_evidence
F5GZT1	2	liver_evidence
C9JA93	2	liver_evidence
C9JNK6	2	liver_evidence
Q8IVD9	2	liver_evidence
Q9HBH5	1	liver_evidence
Q5TBF2	2	liver_evidence
REV__J3KNA1	2	liver_evidence
Q9H400	1	liver_evidence
D3YTI9	2	liver_evidence
B9ZVT1	2	liver_evidence
E9PES6	2	liver_evidence
Q9NYJ1	3	liver_evidence
P24311	2	liver_evidence
REV__H0Y547	4	liver_evidence
F8W6E4	1	liver_evidence
Q96KC8	2	liver_evidence
H0YK36	1	liver_evidence
F5H4S0	5	liver_evidence
O95487-2	1	liver_evidence
R4GMS0	1	liver_evidence
P80294	1	liver_evidence
Q13155	4	liver_evidence
CON__Q9BYR8	1	liver_evidence
Q9BYR7	1	liver_evidence
Q8NDC0	1	liver_evidence
Q5T4B6	4	liver_evidence
H7BZJ3	6	liver_evidence
Q13797	1	liver_evidence
G5E972	2	liver_evidence
O95989	1	liver_evidence
E9PKT9	1	liver_evidence
H0YD64	2	liver_evidence
O95807	2	liver_evidence
A6PVS0	1	liver_evidence
B3KSY4	2	liver_evidence
O75323-2	1	liver_evidence
Q59G71	3	liver_evidence
D3YTC7	2	liver_evidence
Q5T8I0	6	liver_evidence
E5RJY1	1	liver_evidence
Q96QD8	4	liver_evidence
Q9Y2W1	3	liver_evidence
J3KPW7	2	liver_evidence
Q14651	1	liver_evidence
B4DX42	1	liver_evidence
P11234	2	liver_evidence
REV__K7ERE7	1	liver_evidence
Q9BRP8-2	1	liver_evidence
Q8TBQ9	2	liver_evidence
C9J7K9	2	liver_evidence
Q99584	1	liver_evidence
REV__F5H2B9	1	liver_evidence
F8WFD3	2	liver_evidence
Q58FF6	1	liver_evidence
REV__R4GN76	1	liver_evidence
REV__C9JZQ8	1	liver_evidence
P50226	1	liver_evidence
REV__Q96QU1-2	1	liver_evidence
REV__E7ERX9	1	liver_evidence
P02652	2	liver_evidence
H0Y9H2	2	liver_evidence
Q16690	1	liver_evidence
Q16851-2	1	liver_evidence
C9J712	1	liver_evidence
P04080	9	liver_evidence
Q16186	3	liver_evidence
D6RAW0	2	liver_evidence
P50151	1	liver_evidence
Q8TF72	8	liver_evidence
E9PRW4	1	liver_evidence
Q7Z3Q1	2	liver_evidence
Q8WY22	2	liver_evidence
B4DKL4	1	liver_evidence
H0YBR2	2	liver_evidence
P03897	1	liver_evidence
P01859	2	liver_evidence
O76071	3	liver_evidence
H7C417	1	liver_evidence
A6ZJ87	1	liver_evidence
Q27J81-2	1	liver_evidence
P02545-2	3	liver_evidence
Q9UBU6	1	liver_evidence
Q6P163	1	liver_evidence
B1AH58	1	liver_evidence
B4DF38	2	liver_evidence
E9PKW8	1	liver_evidence
K7EKE8	1	liver_evidence
P26447	1	liver_evidence
I3L2B0	1	liver_evidence
Q16891-4	2	liver_evidence
P12110-2	1	liver_evidence
B7Z5R1	1	liver_evidence
P11166	1	liver_evidence
K7EN45	1	liver_evidence
K7EQG4	2	liver_evidence
J3KRZ2	1	liver_evidence
F5GX88	1	liver_evidence
O75380	3	liver_evidence
F5GWP8	1	liver_evidence
P41226	1	liver_evidence
E9PCV6	10	liver_evidence
Q5JS79	4	liver_evidence
P24390	1	liver_evidence
R4GMW7	1	liver_evidence
E7EU96	2	liver_evidence
B4DDM6	2	liver_evidence
Q9UKY1	1	liver_evidence
Q12913-2	2	liver_evidence
Q5VT66	1	liver_evidence
P49448	1	liver_evidence
E9PNM1	2	liver_evidence
F2Z2Y6	2	liver_evidence
F5H0B0	1	liver_evidence
C9JZU7	1	liver_evidence
P02760	2	liver_evidence
REV__P0C7V6	1	liver_evidence
P82921	1	liver_evidence
Q14532	1	liver_evidence
E7EPG1	1	liver_evidence
H3BQ06	1	liver_evidence
CON__ENSEMBL:ENSBTAP00000031900	1	liver_evidence
J3KQS5	1	liver_evidence
P80217	1	liver_evidence
H7BZT4	1	liver_evidence
Q6S8J3	2	liver_evidence
D6RJD1	1	liver_evidence
Q96GW9	1	liver_evidence
Q5T8N1	1	liver_evidence
E9PEW9	2	liver_evidence
Q9NY12-2	2	liver_evidence
H3BSZ3	1	liver_evidence
H7C274	1	liver_evidence
Q9H1E5	1	liver_evidence
Q9UN86-2	2	liver_evidence
P17066	15	liver_evidence
Q8IX04-7	2	liver_evidence
REV__G3V3K1	1	liver_evidence
H0Y988	1	liver_evidence
P05976-2	2	liver_evidence
P51608	1	liver_evidence
Q5JRS2	1	liver_evidence
Q9UEY8-2	1	liver_evidence
P13807-2	6	liver_evidence
Q9UN73-3	1	liver_evidence
Q8WVI0	1	liver_evidence
B4DHY1	1	liver_evidence
Q6N022	1	liver_evidence
Q9UBX3	5	liver_evidence
E5RJB8	1	liver_evidence
A8K4G3	1	liver_evidence
P48059	1	liver_evidence
P51589	1	liver_evidence
Q6UWM9	1	liver_evidence
CON__P19012	1	liver_evidence
U3KPZ1	1	liver_evidence
Q15526-2	1	liver_evidence
U3KQI1	1	liver_evidence
H0YEF4	1	liver_evidence
B1AN99	1	liver_evidence
Q96N16-5	5	liver_evidence
C9JW63	2	liver_evidence
H0YLA2	1	liver_evidence
B3KU87	1	liver_evidence
Q9NUQ2	3	liver_evidence
P31947-2	2	liver_evidence
P42025	1	liver_evidence
P62304	1	liver_evidence
O75438	1	liver_evidence
M0R116	1	liver_evidence
E7EUM5	1	liver_evidence
Q15149-3	2	liver_evidence
Q9Y3L5	3	liver_evidence
H9KV70	1	liver_evidence
B3KQC5	1	liver_evidence
Q92626	1	liver_evidence
H7C3K7	1	liver_evidence
C9J469	1	liver_evidence
E7ER68	1	liver_evidence
E5RHT6	1	liver_evidence
F5H843	2	liver_evidence
Q14697	3	liver_evidence
E7EMX7	1	liver_evidence
Q969L2	3	liver_evidence
B4DDM3	1	liver_evidence
O15243	2	liver_evidence
P16455	1	liver_evidence
Q9H5Q4	1	liver_evidence
P00739	1	liver_evidence
H7C4B5	1	liver_evidence
P11215	1	liver_evidence
M0R389	1	liver_evidence
O15120	2	liver_evidence
P03891	1	liver_evidence
S4R3N9	3	liver_evidence
P00395	6	liver_evidence
E9PHG5	1	liver_evidence
E5RGN3	1	liver_evidence
REV__H0YCZ7	1	liver_evidence
H0YDX6	3	liver_evidence
K7ELV6	1	liver_evidence
O95139	1	liver_evidence
J3QL12	1	liver_evidence
A6NLH6	1	liver_evidence
C9JRU6	1	liver_evidence
R4GMP8	1	liver_evidence
S4R2X5	1	liver_evidence
Q5SRQ3	1	liver_evidence
Q5STX8	1	liver_evidence
P03950	1	liver_evidence
