"","Peptides","Unique Peptides","Avg. Peptide Length","Avg. m/z","Avg. Score","Avg. Delta Score"
"Kim Evidence",868805,105492,12.9920960399629,626.662615007392,98.1505045892964,75.1462618563412
"Kim Mapping",8836548,68541,13.1121409627379,628.80047017228,98.110537014603,75.4580365374396
"Kim Difference",332264,36951,12.8484999879614,623.073824597263,101.36257680178,77.2820143135567
