ENST00000627526
ENST00000627526
ENST00000627526
ENST00000627526
ENST00000627526
ENST00000627526
ENST00000627526
ENST00000627526
ENST00000627526
ENST00000627526
ENST00000627526
ENST00000627526
ENST00000627526
ENST00000627526
ENST00000627526
ENST00000627526
ENST00000627526
ENST00000627526
ENST00000627526
ENST00000627526
ENST00000627526
ENST00000627526
ENST00000550549
ENST00000550549
ENST00000550549
ENST00000550549
ENST00000550549
ENST00000550549
ENST00000550549
ENST00000550549
ENST00000550549
ENST00000550549
ENST00000550549
ENST00000550549
ENST00000550549
ENST00000550549
ENST00000550549
ENST00000550549
ENST00000550549
ENST00000550549
ENST00000550549
ENST00000550549
ENST00000550549
ENST00000550549
ENST00000550549
ENST00000550549
ENST00000550549
ENST00000550549
ENST00000550549
ENST00000550549
ENST00000550549
ENST00000550549
ENST00000550549
ENST00000550549
ENST00000550549
ENST00000550549
ENST00000550549
ENST00000550549
ENST00000550549
ENST00000550549
ENST00000550549
ENST00000550549
ENST00000550549
ENST00000550549
ENST00000550549
ENST00000550549
ENST00000550549
ENST00000550549
ENST00000550549
ENST00000550549
ENST00000550549
ENST00000550549
ENST00000550549
ENST00000550549
ENST00000550549
ENST00000550549
ENST00000550549
ENST00000550549
ENST00000550549
ENST00000550549
ENST00000550549
ENST00000550549
ENST00000550549
ENST00000550549
ENST00000550549
ENST00000550549
ENST00000550549
ENST00000550549
ENST00000550549
ENST00000550549
ENST00000550549
ENST00000550549
ENST00000550549
ENST00000562438
ENST00000562438
ENST00000562438
ENST00000562438
ENST00000562438
ENST00000562438
ENST00000562438
ENST00000562438
ENST00000562438
ENST00000562438
ENST00000562438
ENST00000562438
ENST00000562438
ENST00000562438
ENST00000562438
ENST00000562438
ENST00000562438
ENST00000562438
ENST00000562438
ENST00000562438
ENST00000562438
ENST00000562438
ENST00000562438
ENST00000562438
ENST00000562438
ENST00000538148
ENST00000538148
ENST00000538148
ENST00000538148
ENST00000538148
ENST00000538148
ENST00000538148
ENST00000538148
ENST00000538148
ENST00000538148
ENST00000538148
ENST00000538148
ENST00000538148
ENST00000538148
ENST00000538148
ENST00000538148
ENST00000538148
ENST00000538148
ENST00000538148
ENST00000538148
ENST00000538148
ENST00000538148
ENST00000538148
ENST00000538148
ENST00000538148
ENST00000538148
ENST00000538148
ENST00000538148
ENST00000538148
ENST00000538148
ENST00000538148
ENST00000538148
ENST00000538148
ENST00000538148
ENST00000538148
ENST00000538148
ENST00000538148
ENST00000538148
ENST00000538148
ENST00000538148
ENST00000538148
ENST00000538148
ENST00000538148
ENST00000538148
ENST00000538148
ENST00000538148
ENST00000538148
ENST00000538148
ENST00000538148
ENST00000538148
ENST00000538148
ENST00000538148
ENST00000538148
ENST00000538148
ENST00000538148
ENST00000343098
ENST00000343098
ENST00000380432
ENST00000380432
ENST00000380432
ENST00000380432
ENST00000547522
ENST00000613734
ENST00000613734
ENST00000613734
ENST00000394887
ENST00000394887
ENST00000394887
ENST00000394887
ENST00000394887
ENST00000394887
ENST00000394887
ENST00000394887
ENST00000394887
ENST00000394887
ENST00000394887
ENST00000394887
ENST00000394887
ENST00000394887
ENST00000394887
ENST00000394887
ENST00000394887
ENST00000394887
ENST00000394887
ENST00000394887
ENST00000394887
ENST00000394887
ENST00000394887
ENST00000394887
ENST00000394887
ENST00000394887
ENST00000394887
ENST00000394887
ENST00000394887
ENST00000394887
ENST00000394887
ENST00000394887
ENST00000394887
ENST00000394887
ENST00000394887
ENST00000394887
ENST00000394887
ENST00000394887
ENST00000394887
ENST00000394887
ENST00000394887
ENST00000394887
ENST00000394887
ENST00000394887
ENST00000394887
ENST00000394887
ENST00000394887
ENST00000394887
ENST00000394887
ENST00000394887
ENST00000394887
ENST00000394887
ENST00000394887
ENST00000394887
ENST00000394887
ENST00000394887
ENST00000394887
ENST00000394887
ENST00000394887
ENST00000394887
ENST00000394887
ENST00000394887
ENST00000394887
ENST00000394887
ENST00000394887
ENST00000394887
ENST00000394887
ENST00000394887
ENST00000394887
ENST00000394887
ENST00000394887
ENST00000394887
ENST00000394887
ENST00000394887
ENST00000394887
ENST00000394887
ENST00000394887
ENST00000394887
ENST00000394887
ENST00000394887
ENST00000394887
ENST00000394887
ENST00000394887
ENST00000394887
ENST00000394887
ENST00000394887
ENST00000394887
ENST00000394887
ENST00000394887
ENST00000394887
ENST00000394887
ENST00000394887
ENST00000394887
ENST00000394887
ENST00000394887
ENST00000394887
ENST00000394887
ENST00000394887
ENST00000394887
ENST00000394887
ENST00000394887
ENST00000394887
ENST00000394887
ENST00000394887
ENST00000394887
ENST00000394887
ENST00000394887
ENST00000394887
ENST00000394887
ENST00000394887
ENST00000394887
ENST00000394887
ENST00000394887
ENST00000394887
ENST00000394887
ENST00000394887
ENST00000394887
ENST00000394887
ENST00000394887
ENST00000394887
ENST00000394887
ENST00000394887
ENST00000316878
ENST00000316878
ENST00000316878
ENST00000536030
ENST00000536030
ENST00000536030
ENST00000536030
ENST00000536030
ENST00000536030
ENST00000536030
ENST00000536030
ENST00000536030
ENST00000536030
ENST00000536030
ENST00000536030
ENST00000536030
ENST00000536030
ENST00000536030
ENST00000536030
ENST00000536030
ENST00000536030
ENST00000536030
ENST00000536030
ENST00000536030
ENST00000536030
ENST00000536030
ENST00000536030
ENST00000536030
ENST00000536030
ENST00000536030
ENST00000536030
ENST00000536030
ENST00000536030
ENST00000536030
ENST00000536030
ENST00000536030
ENST00000536030
ENST00000536030
ENST00000536030
