ENST00000613734
ENST00000613734
ENST00000613734
ENST00000613734
ENST00000613734
ENST00000613734
ENST00000613734
ENST00000613734
ENST00000613734
ENST00000613734
ENST00000613734
ENST00000613734
ENST00000613734
ENST00000613734
ENST00000613734
ENST00000613734
ENST00000613734
ENST00000613734
ENST00000613734
ENST00000613734
ENST00000613734
ENST00000613734
ENST00000613734
ENST00000613734
ENST00000613734
ENST00000613734
ENST00000613734
ENST00000613734
ENST00000613734
ENST00000613734
ENST00000613734
ENST00000613734
ENST00000613734
ENST00000613734
ENST00000613734
ENST00000613734
ENST00000613734
ENST00000613734
ENST00000613734
ENST00000613734
ENST00000613734
ENST00000613734
ENST00000613734
ENST00000613734
ENST00000359069
ENST00000538148
ENST00000538148
ENST00000538148
ENST00000538148
ENST00000538148
ENST00000538148
ENST00000538148
ENST00000538148
ENST00000538148
ENST00000538148
ENST00000538148
ENST00000538148
ENST00000538148
ENST00000538148
ENST00000538148
ENST00000538148
ENST00000538148
ENST00000538148
ENST00000538148
ENST00000538148
ENST00000538148
ENST00000538148
ENST00000538148
ENST00000538148
ENST00000538148
ENST00000538148
ENST00000538148
ENST00000538148
ENST00000538148
ENST00000538148
ENST00000538148
ENST00000538148
ENST00000538148
ENST00000538148
ENST00000538148
ENST00000538148
ENST00000538148
ENST00000538148
ENST00000538148
ENST00000538148
ENST00000538148
ENST00000538148
ENST00000538148
ENST00000538148
ENST00000538148
ENST00000538148
ENST00000538148
ENST00000538148
ENST00000538148
ENST00000538148
ENST00000538148
ENST00000538148
ENST00000538148
ENST00000538148
ENST00000538148
ENST00000538148
ENST00000538148
ENST00000538148
ENST00000394887
ENST00000394887
ENST00000394887
ENST00000394887
ENST00000394887
ENST00000394887
ENST00000394887
ENST00000394887
ENST00000394887
ENST00000394887
ENST00000394887
ENST00000394887
ENST00000394887
ENST00000394887
ENST00000394887
ENST00000394887
ENST00000394887
ENST00000394887
ENST00000394887
ENST00000394887
ENST00000394887
ENST00000394887
ENST00000394887
ENST00000394887
ENST00000394887
ENST00000394887
ENST00000394887
ENST00000394887
ENST00000394887
ENST00000394887
ENST00000394887
ENST00000394887
ENST00000394887
ENST00000394887
ENST00000394887
ENST00000394887
ENST00000394887
ENST00000394887
ENST00000394887
ENST00000394887
ENST00000394887
ENST00000394887
ENST00000394887
ENST00000394887
ENST00000394887
ENST00000394887
ENST00000394887
ENST00000394887
ENST00000394887
ENST00000394887
ENST00000394887
ENST00000394887
ENST00000394887
ENST00000394887
ENST00000394887
ENST00000394887
ENST00000394887
ENST00000394887
ENST00000394887
ENST00000394887
ENST00000394887
ENST00000394887
ENST00000394887
ENST00000394887
ENST00000394887
ENST00000394887
ENST00000394887
ENST00000394887
ENST00000394887
ENST00000394887
ENST00000394887
ENST00000394887
ENST00000394887
ENST00000394887
ENST00000394887
ENST00000394887
ENST00000394887
ENST00000394887
ENST00000394887
ENST00000394887
ENST00000394887
ENST00000394887
ENST00000394887
ENST00000394887
ENST00000394887
ENST00000394887
ENST00000394887
ENST00000394887
ENST00000394887
ENST00000394887
ENST00000394887
ENST00000394887
ENST00000394887
ENST00000394887
ENST00000394887
ENST00000394887
ENST00000394887
ENST00000394887
ENST00000394887
ENST00000394887
ENST00000394887
ENST00000394887
ENST00000394887
ENST00000394887
ENST00000394887
ENST00000394887
ENST00000394887
ENST00000394887
ENST00000394887
ENST00000394887
ENST00000394887
ENST00000394887
ENST00000394887
ENST00000394887
ENST00000394887
ENST00000394887
ENST00000394887
ENST00000394887
ENST00000394887
ENST00000394887
ENST00000394887
ENST00000394887
ENST00000394887
ENST00000394887
ENST00000394887
ENST00000394887
ENST00000394887
ENST00000562438
ENST00000562438
ENST00000562438
ENST00000562438
ENST00000562438
ENST00000562438
ENST00000562438
ENST00000536030
ENST00000536030
ENST00000536030
ENST00000536030
ENST00000536030
ENST00000536030
ENST00000536030
ENST00000536030
ENST00000536030
ENST00000536030
ENST00000536030
ENST00000536030
ENST00000536030
ENST00000536030
ENST00000536030
ENST00000536030
ENST00000536030
ENST00000536030
ENST00000536030
ENST00000536030
ENST00000536030
ENST00000536030
ENST00000536030
ENST00000536030
ENST00000536030
ENST00000536030
ENST00000536030
ENST00000536030
ENST00000536030
ENST00000536030
ENST00000536030
ENST00000536030
ENST00000536030
ENST00000536030
ENST00000536030
ENST00000536030
ENST00000536030
ENST00000536030
ENST00000536030
ENST00000536030
ENST00000536030
ENST00000536030
ENST00000536030
ENST00000536030
ENST00000536030
ENST00000536030
ENST00000536030
ENST00000536030
ENST00000536030
ENST00000536030
ENST00000536030
ENST00000536030
ENST00000536030
ENST00000536030
ENST00000536030
ENST00000536030
